(module Molex_172316_12pin (layer F.Cu) (tedit 5E78DE04)
  (fp_text reference REF** (at 8.75 -3) (layer F.SilkS)
    (effects (font (size 1 1) (thickness 0.12)))
  )
  (fp_text value Molex_172316_12pin (at 8.75 7) (layer F.Fab)
    (effects (font (size 1 1) (thickness 0.15)))
  )
  (fp_line (start -2.75 -2) (end 20.25 -2) (layer F.SilkS) (width 0.12))
  (fp_line (start 20.25 -2) (end 20.25 16) (layer F.SilkS) (width 0.12))
  (fp_line (start -2.75 -2) (end -2.75 16) (layer F.SilkS) (width 0.12))
  (fp_line (start -2.75 16) (end 20.25 16) (layer F.SilkS) (width 0.12))
  (fp_line (start 4.85 18.2) (end 12.65 18.2) (layer F.SilkS) (width 0.12))
  (fp_line (start 12.65 18.2) (end 12.65 16) (layer F.SilkS) (width 0.12))
  (fp_line (start 4.85 18.2) (end 4.85 16) (layer F.SilkS) (width 0.12))
  (pad 2 thru_hole circle (at 3.5 0) (size 1.8 1.8) (drill 1.02) (layers *.Cu *.Mask))
  (pad 3 thru_hole circle (at 7 0) (size 1.8 1.8) (drill 1.02) (layers *.Cu *.Mask))
  (pad 4 thru_hole circle (at 10.5 0) (size 1.8 1.8) (drill 1.02) (layers *.Cu *.Mask))
  (pad 5 thru_hole circle (at 14 0) (size 1.8 1.8) (drill 1.02) (layers *.Cu *.Mask))
  (pad 6 thru_hole circle (at 17.5 0) (size 1.8 1.8) (drill 1.02) (layers *.Cu *.Mask))
  (pad 7 thru_hole circle (at 0 3.5) (size 1.8 1.8) (drill 1.02) (layers *.Cu *.Mask))
  (pad 8 thru_hole circle (at 3.5 3.5) (size 1.8 1.8) (drill 1.02) (layers *.Cu *.Mask))
  (pad 9 thru_hole circle (at 7 3.5) (size 1.8 1.8) (drill 1.02) (layers *.Cu *.Mask))
  (pad 10 thru_hole circle (at 10.5 3.5) (size 1.8 1.8) (drill 1.02) (layers *.Cu *.Mask))
  (pad 11 thru_hole circle (at 14 3.5) (size 1.8 1.8) (drill 1.02) (layers *.Cu *.Mask))
  (pad 12 thru_hole circle (at 17.5 3.5) (size 1.8 1.8) (drill 1.02) (layers *.Cu *.Mask))
  (pad "" np_thru_hole circle (at 1.75 10.91) (size 3.05 3.05) (drill 3.05) (layers *.Cu))
  (pad "" np_thru_hole circle (at 15.75 10.91) (size 3.05 3.05) (drill 3.05) (layers *.Cu))
  (pad 1 thru_hole circle (at 0 0) (size 1.8 1.8) (drill 1.02) (layers *.Cu *.Mask))
)
