(footprint "tsi_mpw_chip_two_row_wire_diagram" (version 20210228) (generator pcbnew) locked (layer "F.Cu")
  (tedit 60828945)
  (property "Sheetfile" "MightyPixRun2020_PCB.kicad_sch")
  (property "Sheetname" "")
  (solder_mask_margin -1)
  (solder_paste_ratio -0.5)
  (clearance 0.1)
  (attr exclude_from_pos_files)
  (fp_text reference "REF**" (at -10.9222 -8.5982) (layer "F.SilkS")
    (effects (font (size 1 1) (thickness 0.15)))
    (tstamp 5c603921-d79a-46fc-8d8a-12699e053378)
  )
  (fp_text value "MPW_Chip" (at 1.25 -10.5) (layer "F.Fab")
    (effects (font (size 1 1) (thickness 0.15)))
    (tstamp 970708d8-e76b-4b89-b057-92d76dbb5d20)
  )
  (fp_text user "49" (at -2.3 -2.2) (layer "Dwgs.User")
    (effects (font (size 0.05 0.05) (thickness 0.001)))
    (tstamp 1e537a68-9fa3-4c3a-9185-b7252de33dc5)
  )
  (fp_text user "48" (at 2.35 2.15 90) (layer "Dwgs.User")
    (effects (font (size 0.05 0.05) (thickness 0.001)))
    (tstamp 29dc12b7-4964-4d94-a9e2-42b76704f767)
  )
  (fp_text user "1" (at -2.35 2.15 90) (layer "Dwgs.User")
    (effects (font (size 0.05 0.05) (thickness 0.001)))
    (tstamp 8e8f98ad-4736-41d7-8a39-6e3f5d48eaf1)
  )
  (fp_text user "78" (at 2.35 1.9) (layer "Dwgs.User")
    (effects (font (size 0.05 0.05) (thickness 0.001)))
    (tstamp 914643eb-64bd-4479-89ae-d8f21d3c444f)
  )
  (fp_text user "77" (at 2.4 -0.4) (layer "Dwgs.User")
    (effects (font (size 0.05 0.05) (thickness 0.001)))
    (tstamp 9b6ee5dc-d7ae-4c06-8387-f0746fec028c)
  )
  (fp_text user "61" (at -2.4 -0.7) (layer "Dwgs.User")
    (effects (font (size 0.05 0.05) (thickness 0.001)))
    (tstamp c28ca00a-63a3-4aa0-9c98-407d828d5006)
  )
  (fp_text user "62" (at 2.4 -2.2) (layer "Dwgs.User")
    (effects (font (size 0.05 0.05) (thickness 0.001)))
    (tstamp c7dc523f-8025-4deb-bf8c-0aa7222e69c2)
  )
  (fp_text user "24" (at -0.05 2.15 90) (layer "Dwgs.User")
    (effects (font (size 0.05 0.05) (thickness 0.005)))
    (tstamp c8db1cd9-9400-4098-9280-78634b19174b)
  )
  (fp_text user "36" (at 1.1336 2.318 unlocked) (layer "User.2")
    (effects (font (size 0.03 0.03) (thickness 0.0075)))
    (tstamp 80d5b558-c6ef-4c21-b678-c2cf9cd5cb8c)
  )
  (fp_text user "12" (at -1.2664 2.318 unlocked) (layer "User.2")
    (effects (font (size 0.03 0.03) (thickness 0.0075)))
    (tstamp b9f69d0f-909c-4144-a1a8-9aed46f140fa)
  )
  (fp_poly (pts (xy 4.35 4.4)
    (xy -5.4 4.4)
    (xy -5.4 -4.02)
    (xy 4.35 -4.02)) (layer "B.Mask") (width 0.1) (fill solid) (tstamp e8f110a3-534b-44ff-a483-a08d079bda8d))
  (fp_poly (pts (xy 8.4 8.2)
    (xy -8.4 8.2)
    (xy -8.4 -5.4)
    (xy 8.4 -5.4)) (layer "F.Mask") (width 0.1) (fill solid) (tstamp 567a20c6-b695-48b9-978b-099affded421))
  (fp_line (start 2.4 -0.85) (end 2.4 -0.775) (layer "Dwgs.User") (width 0.01) (tstamp 0052080a-57c2-4cea-9b32-6919d86ae761))
  (fp_line (start -0.225 2.385) (end -0.3 2.385) (layer "Dwgs.User") (width 0.01) (tstamp 00bb791d-aa37-46ac-afe4-18d0703cdd69))
  (fp_line (start 2.475 -1.775) (end 2.4 -1.775) (layer "Dwgs.User") (width 0.01) (tstamp 019c8c9f-f0b9-4085-8a35-817d22d47021))
  (fp_line (start -2.475 -1.85) (end -2.4 -1.85) (layer "Dwgs.User") (width 0.01) (tstamp 02115f9e-3713-4baa-90f1-43c8e9007ef3))
  (fp_line (start 1.875 2.245) (end 1.875 2.385) (layer "Dwgs.User") (width 0.01) (tstamp 027e974c-b321-41e1-a659-783d5cdda85f))
  (fp_line (start 0.9 2.245) (end 0.975 2.245) (layer "Dwgs.User") (width 0.01) (tstamp 031440d5-043b-4916-8211-8de12ae288b7))
  (fp_line (start -2.475 -1.35) (end -2.4 -1.35) (layer "Dwgs.User") (width 0.01) (tstamp 05297088-7c5a-45ad-b963-85fe8a9df88c))
  (fp_line (start 2.475 -1.75) (end 2.475 -1.675) (layer "Dwgs.User") (width 0.01) (tstamp 05aa4c88-18f9-4fc5-a3f9-c0fa66f15294))
  (fp_line (start 0.7 2.245) (end 0.775 2.245) (layer "Dwgs.User") (width 0.01) (tstamp 05cac7be-d66b-4058-8dd1-1b9628b1e5a0))
  (fp_line (start 2.4 -1.65) (end 2.4 -1.575) (layer "Dwgs.User") (width 0.01) (tstamp 06097115-8700-4621-9792-cf18832194c5))
  (fp_line (start -2.475 -1.05) (end -2.475 -0.975) (layer "Dwgs.User") (width 0.01) (tstamp 060d31e7-85c1-497a-b4c1-e328a141618a))
  (fp_line (start 2.475 -0.55) (end 2.475 -0.475) (layer "Dwgs.User") (width 0.01) (tstamp 061dc8a6-e529-418f-8d0c-329014bfd934))
  (fp_line (start -1.7 2.245) (end -1.7 2.385) (layer "Dwgs.User") (width 0.01) (tstamp 06cf9aba-cbd0-45b2-8669-aef3ac02a56c))
  (fp_line (start 1 2.245) (end 1.075 2.245) (layer "Dwgs.User") (width 0.01) (tstamp 0705b89d-9689-4879-8646-a023e5ae53c4))
  (fp_line (start 2.375 2.055) (end 2.3 2.055) (layer "Dwgs.User") (width 0.01) (tstamp 07422dd2-7e2e-4524-b9d0-acfa944a5dbf))
  (fp_line (start 0.3 2.245) (end 0.3 2.385) (layer "Dwgs.User") (width 0.01) (tstamp 07545ddd-6a21-40a1-95b1-96250b745d76))
  (fp_line (start 1.475 2.245) (end 1.475 2.385) (layer "Dwgs.User") (width 0.01) (tstamp 07bbf2bc-3205-4ac6-996f-c7a9ed27273e))
  (fp_line (start 2.475 -0.975) (end 2.4 -0.975) (layer "Dwgs.User") (width 0.01) (tstamp 083315a0-d78f-448e-8ecd-40b8acec128d))
  (fp_line (start 1.7 2.245) (end 1.7 2.385) (layer "Dwgs.User") (width 0.01) (tstamp 0874f391-6c83-48fc-b3e6-5b325b51ed1d))
  (fp_line (start 2.475 -1.075) (end 2.4 -1.075) (layer "Dwgs.User") (width 0.01) (tstamp 08a287ec-29a2-4f44-ab66-92726e02394b))
  (fp_line (start 0.275 2.245) (end 0.275 2.385) (layer "Dwgs.User") (width 0.01) (tstamp 08c2b03a-c15b-44b9-823e-98afc2a88a25))
  (fp_line (start -1.5 2.245) (end -1.5 2.385) (layer "Dwgs.User") (width 0.01) (tstamp 0a3e564b-2fa5-4448-b2f7-1de0fdec4ce0))
  (fp_line (start 2.5 -2.45) (end 2.5 2.42) (layer "Dwgs.User") (width 0.01) (tstamp 0ade447c-2311-4f1b-be71-40f53520f83d))
  (fp_line (start -2.4 -1.35) (end -2.4 -1.275) (layer "Dwgs.User") (width 0.01) (tstamp 0b8c2576-45d7-478c-9598-7fb4f6ee5976))
  (fp_line (start 2.4 -0.55) (end 2.475 -0.55) (layer "Dwgs.User") (width 0.01) (tstamp 0c13fc29-34be-4d8e-ad55-9495750c9b81))
  (fp_line (start 2.475 -1.85) (end 2.475 -1.775) (layer "Dwgs.User") (width 0.01) (tstamp 0d4e2116-88ae-46fb-969a-3f6e0f725191))
  (fp_line (start -2.4 -0.85) (end -2.4 -0.775) (layer "Dwgs.User") (width 0.01) (tstamp 0d62492a-7db7-40bc-b1c1-36f5789a72c6))
  (fp_line (start -2.475 -1.55) (end -2.475 -1.475) (layer "Dwgs.User") (width 0.01) (tstamp 0fb94b19-638d-4b3e-b1de-13f65326b945))
  (fp_line (start -2.4 -1.675) (end -2.475 -1.675) (layer "Dwgs.User") (width 0.01) (tstamp 10d7a020-3f32-4cac-8139-16d2bccbd20b))
  (fp_line (start 2.4 -1.35) (end 2.475 -1.35) (layer "Dwgs.User") (width 0.01) (tstamp 10e8e2fc-9d9e-4aeb-8bb2-c9aea6855984))
  (fp_line (start -0.725 2.245) (end -0.725 2.385) (layer "Dwgs.User") (width 0.01) (tstamp 10f57452-a11f-4b7d-b840-e1bd55d1b1af))
  (fp_line (start -2.4 -1.375) (end -2.475 -1.375) (layer "Dwgs.User") (width 0.01) (tstamp 1132ccfc-53ac-4751-9e62-f818aa78de12))
  (fp_line (start 0.9 2.245) (end 0.9 2.385) (layer "Dwgs.User") (width 0.01) (tstamp 11804e5c-cae0-41d3-bac6-2b62255206a9))
  (fp_line (start -1.325 2.245) (end -1.325 2.385) (layer "Dwgs.User") (width 0.01) (tstamp 1280fed7-455b-4db3-80cd-f578c5b8f598))
  (fp_line (start 1.6 2.245) (end 1.6 2.385) (layer "Dwgs.User") (width 0.01) (tstamp 144f4014-0dfe-46d9-a726-5f2067a30f95))
  (fp_line (start 0.275 2.385) (end 0.2 2.385) (layer "Dwgs.User") (width 0.01) (tstamp 1472bb3b-477a-4024-bb74-df54668c75c3))
  (fp_line (start 1.4 2.245) (end 1.4 2.385) (layer "Dwgs.User") (width 0.01) (tstamp 14fdbb2f-ab4f-437e-a1b7-c6920ec1ffd7))
  (fp_line (start 1.775 2.385) (end 1.7 2.385) (layer "Dwgs.User") (width 0.01) (tstamp 15694bf0-7ceb-4d5d-aaf9-22a65f3e3c55))
  (fp_line (start -0.4 2.245) (end -0.4 2.385) (layer "Dwgs.User") (width 0.01) (tstamp 1595bff4-44d5-43dd-8478-75adaa9d1787))
  (fp_line (start 1.375 2.245) (end 1.375 2.385) (layer "Dwgs.User") (width 0.01) (tstamp 15b30c8c-e178-4928-86d0-4158e7e46614))
  (fp_line (start 2.4 -1.45) (end 2.475 -1.45) (layer "Dwgs.User") (width 0.01) (tstamp 161d9df8-8a1e-4b8b-bd62-3e787092fcc8))
  (fp_line (start -1.7 2.245) (end -1.625 2.245) (layer "Dwgs.User") (width 0.01) (tstamp 166b9a5a-885e-4e71-8319-85f53593a90d))
  (fp_line (start 2.4 -1.75) (end 2.475 -1.75) (layer "Dwgs.User") (width 0.01) (tstamp 18916ac1-9f96-432c-86f7-d99b48d4d1b4))
  (fp_line (start -2.325 2.245) (end -2.325 2.385) (layer "Dwgs.User") (width 0.01) (tstamp 1934aeff-aca0-4f4b-af2d-a8338437784e))
  (fp_line (start 1.575 2.385) (end 1.5 2.385) (layer "Dwgs.User") (width 0.01) (tstamp 194e21e7-2699-46de-8834-3d0cd599ea71))
  (fp_line (start -1 2.245) (end -1 2.385) (layer "Dwgs.User") (width 0.01) (tstamp 1988c315-0a22-4377-af06-1b2fb54a7001))
  (fp_line (start 2.475 -0.675) (end 2.4 -0.675) (layer "Dwgs.User") (width 0.01) (tstamp 1a667e12-51e8-4089-88e1-955eff2aff4e))
  (fp_line (start 2.5 2.42) (end -2.5 2.42) (layer "Dwgs.User") (width 0.01) (tstamp 1b4f24f3-2ca6-49a3-b51c-0652c389f7c3))
  (fp_line (start 1.275 2.245) (end 1.275 2.385) (layer "Dwgs.User") (width 0.01) (tstamp 1bce27ad-50f4-4f08-85dd-dbf81ad87a17))
  (fp_line (start -0.9 2.245) (end -0.9 2.385) (layer "Dwgs.User") (width 0.01) (tstamp 1c9a7eab-dd5d-4f3c-9950-1f7ecc09fdb2))
  (fp_line (start -1.6 2.245) (end -1.525 2.245) (layer "Dwgs.User") (width 0.01) (tstamp 1eb00746-4411-491e-ab3c-00ddaa8afca0))
  (fp_line (start -0.3 2.245) (end -0.225 2.245) (layer "Dwgs.User") (width 0.01) (tstamp 1f4c8dac-7f52-4b7c-ae9d-143f586abf1e))
  (fp_line (start 0.2 2.245) (end 0.2 2.385) (layer "Dwgs.User") (width 0.01) (tstamp 1fb81cc2-b0ea-4e71-b80a-5aa409559d24))
  (fp_line (start -2.3 2.245) (end -2.3 2.385) (layer "Dwgs.User") (width 0.01) (tstamp 20724ab3-6b58-46e9-9a75-3ae1ade0e93e))
  (fp_line (start -2.025 2.385) (end -2.1 2.385) (layer "Dwgs.User") (width 0.01) (tstamp 20ffa3af-0e0c-4353-b64f-994dec54aaaf))
  (fp_line (start -1.9 2.245) (end -1.825 2.245) (layer "Dwgs.User") (width 0.01) (tstamp 21890209-5216-4fd8-90a9-0695eeb7288b))
  (fp_line (start 2.475 -2.15) (end 2.475 -2.075) (layer "Dwgs.User") (width 0.01) (tstamp 224b8776-9889-469d-bb56-39a55a79b96d))
  (fp_line (start 1.075 2.385) (end 1 2.385) (layer "Dwgs.User") (width 0.01) (tstamp 229b849f-ccc7-4d52-afd6-ca3d73587e3e))
  (fp_line (start 2.4 -1.95) (end 2.475 -1.95) (layer "Dwgs.User") (width 0.01) (tstamp 233b9263-cdd1-41e0-967d-68e8e0020e1c))
  (fp_line (start 0.1 2.245) (end 0.1 2.385) (layer "Dwgs.User") (width 0.01) (tstamp 23ec0217-3eb7-4035-8901-ec10db97fa18))
  (fp_line (start 2.275 2.245) (end 2.275 2.385) (layer "Dwgs.User") (width 0.01) (tstamp 24dadbdc-a315-4aa9-b9cf-882654ed7e17))
  (fp_line (start -2.475 -1.85) (end -2.475 -1.775) (layer "Dwgs.User") (width 0.01) (tstamp 25932993-2cbc-4944-872a-98b5b9fae8a9))
  (fp_line (start -2.4 -1.175) (end -2.475 -1.175) (layer "Dwgs.User") (width 0.01) (tstamp 25fc5ed3-da00-4f36-81ed-b0c498818cd3))
  (fp_line (start 2.4 -1.05) (end 2.4 -0.975) (layer "Dwgs.User") (width 0.01) (tstamp 27d23886-52e1-489f-b42c-fdf9ad7c3fd1))
  (fp_line (start -1.225 2.385) (end -1.3 2.385) (layer "Dwgs.User") (width 0.01) (tstamp 281c25b5-8e5e-4f80-9257-7ce6118c1868))
  (fp_line (start -2.4 -1.275) (end -2.475 -1.275) (layer "Dwgs.User") (width 0.01) (tstamp 2891097e-68a3-43d9-9e80-1f889e896c25))
  (fp_line (start 2.4 -2.15) (end 2.475 -2.15) (layer "Dwgs.User") (width 0.01) (tstamp 28d7b0a1-f424-4d99-b375-eeac0f4e9c26))
  (fp_line (start 1.175 2.245) (end 1.175 2.385) (layer "Dwgs.User") (width 0.01) (tstamp 28f16638-531e-45b9-a340-3796a076f79f))
  (fp_line (start 2 2.245) (end 2 2.385) (layer "Dwgs.User") (width 0.01) (tstamp 2a3613a4-b675-452d-9931-403e52d3308e))
  (fp_line (start 2.475 -1.675) (end 2.4 -1.675) (layer "Dwgs.User") (width 0.01) (tstamp 2a6d69dc-8292-4105-bd33-4f5cc151ab27))
  (fp_line (start 1.675 2.385) (end 1.6 2.385) (layer "Dwgs.User") (width 0.01) (tstamp 2af26dd1-a563-476a-a56e-a6b30aee51b4))
  (fp_line (start -1.8 2.245) (end -1.725 2.245) (layer "Dwgs.User") (width 0.01) (tstamp 2b14eecc-aa4f-4b46-be5c-8ab5666dedfe))
  (fp_line (start 2.4 -2.15) (end 2.4 -2.075) (layer "Dwgs.User") (width 0.01) (tstamp 2c775e85-e7ed-4c02-b320-d6628f0bb4f1))
  (fp_line (start 1.675 2.245) (end 1.675 2.385) (layer "Dwgs.User") (width 0.01) (tstamp 2cebaffd-406b-4a02-9b49-ab3d71b93b8a))
  (fp_line (start 2.475 -1.25) (end 2.475 -1.175) (layer "Dwgs.User") (width 0.01) (tstamp 2d076dab-c579-4edf-ad50-0a4beee0b69c))
  (fp_line (start -1.2 2.245) (end -1.2 2.385) (layer "Dwgs.User") (width 0.01) (tstamp 2de3860b-69b8-47ad-856a-08e67bf4dc64))
  (fp_line (start 2.2 2.245) (end 2.275 2.245) (layer "Dwgs.User") (width 0.01) (tstamp 2ec783aa-1751-409f-aaf0-0a61ebc53091))
  (fp_line (start -2.475 -1.25) (end -2.475 -1.175) (layer "Dwgs.User") (width 0.01) (tstamp 2f3a1ad6-adc8-46af-b89b-fc36d8f06b06))
  (fp_line (start 0.6 2.245) (end 0.6 2.385) (layer "Dwgs.User") (width 0.01) (tstamp 301940d5-c139-4e89-a454-53f77e7090f6))
  (fp_line (start -2.475 -1.45) (end -2.475 -1.375) (layer "Dwgs.User") (width 0.01) (tstamp 30f4f77c-58d2-4411-888f-3d26729b4078))
  (fp_line (start -2.4 -1.05) (end -2.4 -0.975) (layer "Dwgs.User") (width 0.01) (tstamp 3181b8f1-65fc-49be-8b66-78a96bb3efeb))
  (fp_line (start -2.4 -1.875) (end -2.475 -1.875) (layer "Dwgs.User") (width 0.01) (tstamp 31b4e75b-75f0-47ea-83b4-889cbb59b72b))
  (fp_line (start -1.2 2.245) (end -1.125 2.245) (layer "Dwgs.User") (width 0.01) (tstamp 3281efca-33a2-4634-ad49-ff4948958ec8))
  (fp_line (start 1.1 2.245) (end 1.175 2.245) (layer "Dwgs.User") (width 0.01) (tstamp 32b74a11-7b02-45d0-bd23-570e597dfe44))
  (fp_line (start 2.475 -0.775) (end 2.4 -0.775) (layer "Dwgs.User") (width 0.01) (tstamp 33701324-a57c-4d86-857c-0b4159b2dbd4))
  (fp_line (start -0.6 2.245) (end -0.6 2.385) (layer "Dwgs.User") (width 0.01) (tstamp 34250f5b-c31f-4b57-948d-6b76f928d9ea))
  (fp_line (start 0.575 2.245) (end 0.575 2.385) (layer "Dwgs.User") (width 0.01) (tstamp 35c4044f-dbed-441b-a7b8-a62acc25130a))
  (fp_line (start -0.825 2.245) (end -0.825 2.385) (layer "Dwgs.User") (width 0.01) (tstamp 35e5dd22-a916-4963-95ba-7ccda6aa86ec))
  (fp_line (start -2.3 2.245) (end -2.225 2.245) (layer "Dwgs.User") (width 0.01) (tstamp 37388336-13a1-451e-a65c-3a66680356a9))
  (fp_line (start 2.4 -1.45) (end 2.4 -1.375) (layer "Dwgs.User") (width 0.01) (tstamp 389a7394-54d4-479a-85c3-2bf4d0ea1ccb))
  (fp_line (start -1.4 2.245) (end -1.325 2.245) (layer "Dwgs.User") (width 0.01) (tstamp 396cc22f-92da-460a-bd78-6d17bb68203b))
  (fp_line (start 1.075 2.245) (end 1.075 2.385) (layer "Dwgs.User") (width 0.01) (tstamp 397eb730-2706-48e4-986d-997726805302))
  (fp_line (start -1.125 2.385) (end -1.2 2.385) (layer "Dwgs.User") (width 0.01) (tstamp 3a75a194-43e1-4b19-93aa-550a3d7b3832))
  (fp_line (start -2.125 2.245) (end -2.125 2.385) (layer "Dwgs.User") (width 0.01) (tstamp 3a96057c-d9dc-4858-be0f-95f065a63c11))
  (fp_line (start -1.3 2.245) (end -1.3 2.385) (layer "Dwgs.User") (width 0.01) (tstamp 3c356649-3e15-47e7-bbec-4c2b7b380e26))
  (fp_line (start 0.8 2.245) (end 0.8 2.385) (layer "Dwgs.User") (width 0.01) (tstamp 3caaff28-86c2-4872-afaf-72c3a5741260))
  (fp_line (start 2.4 -1.55) (end 2.4 -1.475) (layer "Dwgs.User") (width 0.01) (tstamp 3d624a9f-d641-4e16-84ea-9130d9e24c41))
  (fp_line (start 0.5 2.245) (end 0.5 2.385) (layer "Dwgs.User") (width 0.01) (tstamp 3e02d3af-9833-49e5-a021-e01448127531))
  (fp_line (start -2.475 -1.75) (end -2.4 -1.75) (layer "Dwgs.User") (width 0.01) (tstamp 3ebe248d-2d12-4aa8-9aef-991e4065eeef))
  (fp_line (start 2.4 -1.65) (end 2.475 -1.65) (layer "Dwgs.User") (width 0.01) (tstamp 3ffc63b0-448e-4ca1-ac3d-042598e139fa))
  (fp_line (start 2.4 -1.05) (end 2.475 -1.05) (layer "Dwgs.User") (width 0.01) (tstamp 41cea95c-3877-4e38-b27f-0cd2572f224f))
  (fp_line (start 1.7 2.245) (end 1.775 2.245) (layer "Dwgs.User") (width 0.01) (tstamp 42796e42-7ca2-49ca-853b-247311260b84))
  (fp_line (start -2.1 2.245) (end -2.025 2.245) (layer "Dwgs.User") (width 0.01) (tstamp 42a10f68-60ab-4b64-9920-f2de02a4ac43))
  (fp_line (start -0.125 2.385) (end -0.2 2.385) (layer "Dwgs.User") (width 0.01) (tstamp 42abe02c-71ce-4d13-82ed-a1a56701b079))
  (fp_line (start 2.475 -0.75) (end 2.475 -0.675) (layer "Dwgs.User") (width 0.01) (tstamp 42cd16c9-d4de-419c-bb3f-dbdabdaeb2b0))
  (fp_line (start 1.2 2.245) (end 1.275 2.245) (layer "Dwgs.User") (width 0.01) (tstamp 42d961e1-528f-4dc5-ae87-e24a46b7d72c))
  (fp_line (start -2.4 -2.175) (end -2.475 -2.175) (layer "Dwgs.User") (width 0.01) (tstamp 42f39317-d87a-4d0a-a935-e6ac538bedc8))
  (fp_line (start -2.4 -0.95) (end -2.4 -0.875) (layer "Dwgs.User") (width 0.01) (tstamp 44ab975f-c777-4465-b34d-530193e43153))
  (fp_line (start 2.3 2.245) (end 2.3 2.385) (layer "Dwgs.User") (width 0.01) (tstamp 44aeb3ab-614e-4627-93e5-b9da9de6535f))
  (fp_line (start 0.375 2.385) (end 0.3 2.385) (layer "Dwgs.User") (width 0.01) (tstamp 4612be2b-9bc9-440d-a3c8-dc81231d9870))
  (fp_line (start 1.875 2.385) (end 1.8 2.385) (layer "Dwgs.User") (width 0.01) (tstamp 4661506a-8d3c-4439-a291-28602f7ace6e))
  (fp_line (start 0.475 2.385) (end 0.4 2.385) (layer "Dwgs.User") (width 0.01) (tstamp 494d284c-353e-44a3-8fe6-d82ecd64bde2))
  (fp_line (start 1.275 2.385) (end 1.2 2.385) (layer "Dwgs.User") (width 0.01) (tstamp 4a4a3d24-615f-465c-9dd1-0fa1e6b5a646))
  (fp_line (start 1.775 2.245) (end 1.775 2.385) (layer "Dwgs.User") (width 0.01) (tstamp 4ba3c47d-a54b-4e22-823a-7f163c959969))
  (fp_line (start -0.4 2.245) (end -0.325 2.245) (layer "Dwgs.User") (width 0.01) (tstamp 4ef27340-0b89-4370-930f-4af83f0d5faf))
  (fp_line (start 2.475 -0.575) (end 2.4 -0.575) (layer "Dwgs.User") (width 0.01) (tstamp 4ffcabe0-5483-4c30-b939-8ebe755d01ed))
  (fp_line (start 2.4 -1.25) (end 2.4 -1.175) (layer "Dwgs.User") (width 0.01) (tstamp 50acff4b-89c2-4afb-8936-1e358a6d216f))
  (fp_line (start 2.3 2.245) (end 2.375 2.245) (layer "Dwgs.User") (width 0.01) (tstamp 512f5b34-b78d-40f5-ae00-f491a2f47c3b))
  (fp_line (start 0.075 2.245) (end 0.075 2.385) (layer "Dwgs.User") (width 0.01) (tstamp 516c478a-c7dd-464c-b677-ff7d3da53ad8))
  (fp_line (start 1.3 2.245) (end 1.3 2.385) (layer "Dwgs.User") (width 0.01) (tstamp 51b7326d-f6ac-4da1-9d66-3aea2e06bfa6))
  (fp_line (start 1.975 2.245) (end 1.975 2.385) (layer "Dwgs.User") (width 0.01) (tstamp 530c5828-3915-40aa-aae4-99442d3a57de))
  (fp_line (start 2.1 2.245) (end 2.1 2.385) (layer "Dwgs.User") (width 0.01) (tstamp 54c8f959-beb2-4a28-8163-ef1f438a3843))
  (fp_line (start -2.5 -2.45) (end 2.5 -2.45) (layer "Dwgs.User") (width 0.01) (tstamp 54f1c4bd-6f61-4c1b-9342-ecfa35df363c))
  (fp_line (start -1.525 2.385) (end -1.6 2.385) (layer "Dwgs.User") (width 0.01) (tstamp 5517e341-8571-43c5-b563-09209e32e374))
  (fp_line (start 2.375 2.245) (end 2.375 2.385) (layer "Dwgs.User") (width 0.01) (tstamp 5621c46b-9bb0-4642-ae11-973983d93183))
  (fp_line (start 2.4 -1.15) (end 2.475 -1.15) (layer "Dwgs.User") (width 0.01) (tstamp 56cf668a-1d69-4617-8214-255cf71d3c2c))
  (fp_line (start -1.925 2.245) (end -1.925 2.385) (layer "Dwgs.User") (width 0.01) (tstamp 586e7869-39e5-4440-b2ba-2d7fa5e8c00e))
  (fp_line (start -2.4 -1.775) (end -2.475 -1.775) (layer "Dwgs.User") (width 0.01) (tstamp 58b49c39-d0ba-433a-9382-b71f1896ba56))
  (fp_line (start -2.4 -0.875) (end -2.475 -0.875) (layer "Dwgs.User") (width 0.01) (tstamp 590a5322-31d2-4a77-b3cb-e412110065a0))
  (fp_line (start -0.025 2.245) (end -0.025 2.385) (layer "Dwgs.User") (width 0.01) (tstamp 595576e3-cbaf-4bb3-acc9-4aeecf4cdda6))
  (fp_line (start -0.625 2.245) (end -0.625 2.385) (layer "Dwgs.User") (width 0.01) (tstamp 5957e31c-5b78-44bf-99f5-5642c2d35832))
  (fp_line (start -2.4 -1.25) (end -2.4 -1.175) (layer "Dwgs.User") (width 0.01) (tstamp 59afac09-d807-46e0-9e84-9e0d6148c2f7))
  (fp_line (start 0.7 2.245) (end 0.7 2.385) (layer "Dwgs.User") (width 0.01) (tstamp 5a1f0626-f98f-4b33-87e7-0da8efc125fc))
  (fp_line (start -1.625 2.385) (end -1.7 2.385) (layer "Dwgs.User") (width 0.01) (tstamp 5ac08acc-58cf-4a8a-b134-a3d32342e3a6))
  (fp_line (start -0.125 2.245) (end -0.125 2.385) (layer "Dwgs.User") (width 0.01) (tstamp 5bc7667d-bf6d-451a-8ab9-18bde240e231))
  (fp_line (start 2.4 -1.75) (end 2.4 -1.675) (layer "Dwgs.User") (width 0.01) (tstamp 5e498efa-309d-4312-aa2b-3dc67ce3bf11))
  (fp_line (start -2.1 2.245) (end -2.1 2.385) (layer "Dwgs.User") (width 0.01) (tstamp 60626429-3ca5-45fd-8929-bae9b98ef255))
  (fp_line (start -0.7 2.245) (end -0.7 2.385) (layer "Dwgs.User") (width 0.01) (tstamp 60bfccb7-8ecc-4ae8-a26b-31bfb8343a7b))
  (fp_line (start -1.125 2.245) (end -1.125 2.385) (layer "Dwgs.User") (width 0.01) (tstamp 62088556-e170-43b4-9700-7986d132ade9))
  (fp_line (start 1.975 2.385) (end 1.9 2.385) (layer "Dwgs.User") (width 0.01) (tstamp 627a60f8-836a-4d3a-8575-93c675b09937))
  (fp_line (start -2.475 -1.65) (end -2.475 -1.575) (layer "Dwgs.User") (width 0.01) (tstamp 63fc4170-61e2-4c9d-b3ed-21e42107869a))
  (fp_line (start 0.4 2.245) (end 0.475 2.245) (layer "Dwgs.User") (width 0.01) (tstamp 6466e02a-4056-4ade-b250-45a6a7cdca47))
  (fp_line (start -2.225 2.385) (end -2.3 2.385) (layer "Dwgs.User") (width 0.01) (tstamp 661af274-5cc6-4f96-80aa-510de7608f83))
  (fp_line (start 2.4 -1.15) (end 2.4 -1.075) (layer "Dwgs.User") (width 0.01) (tstamp 666e4516-e930-4cc1-a1df-3586b4d0d4b0))
  (fp_line (start -2.4 2.245) (end -2.4 2.385) (layer "Dwgs.User") (width 0.01) (tstamp 67582093-366a-4d2c-8287-1b5d90d41f11))
  (fp_line (start -1.025 2.245) (end -1.025 2.385) (layer "Dwgs.User") (width 0.01) (tstamp 67604e3c-6d04-4303-8e0e-8c087ae5c087))
  (fp_line (start -2.4 -1.075) (end -2.475 -1.075) (layer "Dwgs.User") (width 0.01) (tstamp 677bf73d-122f-46ea-b7cc-eb14ff0307b4))
  (fp_line (start -0.025 2.385) (end -0.1 2.385) (layer "Dwgs.User") (width 0.01) (tstamp 68ac3909-6c8b-4d86-abbf-7b1c5fc527f6))
  (fp_line (start 2.4 -1.85) (end 2.475 -1.85) (layer "Dwgs.User") (width 0.01) (tstamp 68c6aaa2-5a36-494d-ad47-f096a992a754))
  (fp_line (start 0.875 2.385) (end 0.8 2.385) (layer "Dwgs.User") (width 0.01) (tstamp 68f40eae-6797-4d11-9c96-0d72feb7a7cf))
  (fp_line (start 0.775 2.245) (end 0.775 2.385) (layer "Dwgs.User") (width 0.01) (tstamp 6927a925-9be6-40cd-82c6-4373f84a2a40))
  (fp_line (start 0.975 2.385) (end 0.9 2.385) (layer "Dwgs.User") (width 0.01) (tstamp 6b94b783-dc8c-48d1-905c-4d60f03767eb))
  (fp_line (start 2.3 1.98) (end 2.3 2.055) (layer "Dwgs.User") (width 0.01) (tstamp 6bd36e0d-47e4-435e-8c2c-da4fbec14a70))
  (fp_line (start 2.3 1.98) (end 2.375 1.98) (layer "Dwgs.User") (width 0.01) (tstamp 6c5b43b8-0140-4bbf-8486-a29dbd622ac4))
  (fp_line (start -2 2.245) (end -1.925 2.245) (layer "Dwgs.User") (width 0.01) (tstamp 6d077ecf-4e11-4490-9eb3-e8b43bc0b851))
  (fp_line (start 1.375 2.385) (end 1.3 2.385) (layer "Dwgs.User") (width 0.01) (tstamp 6def812e-db7b-4bc7-b858-ee7a31249964))
  (fp_line (start -1.825 2.385) (end -1.9 2.385) (layer "Dwgs.User") (width 0.01) (tstamp 6f26b022-8995-457c-b473-97f9b7f18bf3))
  (fp_line (start -2.475 -0.85) (end -2.475 -0.775) (layer "Dwgs.User") (width 0.01) (tstamp 6fb2d843-a05d-4d49-a38e-c2153da2fd21))
  (fp_line (start -2.4 2.245) (end -2.325 2.245) (layer "Dwgs.User") (width 0.01) (tstamp 6ff9ecfa-64e1-4191-b248-c0ba8806c8fd))
  (fp_line (start -0.5 2.245) (end -0.425 2.245) (layer "Dwgs.User") (width 0.01) (tstamp 71dac5ef-c74a-4468-acfa-2ff74ae478af))
  (fp_line (start 0.6 2.245) (end 0.675 2.245) (layer "Dwgs.User") (width 0.01) (tstamp 721f04b3-abbe-46eb-93fa-673410d98f34))
  (fp_line (start 1.1 2.245) (end 1.1 2.385) (layer "Dwgs.User") (width 0.01) (tstamp 72447739-a94f-4a77-9f99-659d870cf27a))
  (fp_line (start -2.475 -1.35) (end -2.475 -1.275) (layer "Dwgs.User") (width 0.01) (tstamp 73419000-1432-44a4-bfaa-80683e3a7b00))
  (fp_line (start -1.925 2.385) (end -2 2.385) (layer "Dwgs.User") (width 0.01) (tstamp 74e9dbe2-0325-4a6b-8a71-0e9be44f1b39))
  (fp_line (start -0.9 2.245) (end -0.825 2.245) (layer "Dwgs.User") (width 0.01) (tstamp 762d695c-b353-44f6-bd24-0567ceb65a76))
  (fp_line (start -2.475 -1.45) (end -2.4 -1.45) (layer "Dwgs.User") (width 0.01) (tstamp 77f15ab6-6918-4f6e-88cc-86e45ccc9c1f))
  (fp_line (start -2.475 -0.95) (end -2.475 -0.875) (layer "Dwgs.User") (width 0.01) (tstamp 79126389-01d9-40f4-93a6-03ae268fb624))
  (fp_line (start -1.725 2.385) (end -1.8 2.385) (layer "Dwgs.User") (width 0.01) (tstamp 7a4fbdee-ecde-439b-bb46-81ad60c278be))
  (fp_line (start -1.8 2.245) (end -1.8 2.385) (layer "Dwgs.User") (width 0.01) (tstamp 7aa15829-4bc6-4a89-abdc-8c32016d2cd6))
  (fp_line (start -0.525 2.245) (end -0.525 2.385) (layer "Dwgs.User") (width 0.01) (tstamp 7b175dc6-5a59-40e0-a3c4-831490bf8bd1))
  (fp_line (start 2.475 -0.475) (end 2.4 -0.475) (layer "Dwgs.User") (width 0.01) (tstamp 7d82f6ab-2c0c-494b-a562-5161e2f0dddb))
  (fp_line (start -2.4 -1.55) (end -2.4 -1.475) (layer "Dwgs.User") (width 0.01) (tstamp 7e07f868-53b1-4dc6-9798-aeb66642f088))
  (fp_line (start 0 2.245) (end 0.075 2.245) (layer "Dwgs.User") (width 0.01) (tstamp 7ecd3be4-916b-4f74-93eb-b9ef5f030cfe))
  (fp_line (start -1.225 2.245) (end -1.225 2.385) (layer "Dwgs.User") (width 0.01) (tstamp 7ef1cc62-035b-4327-86eb-58aeef79b1d8))
  (fp_line (start -2.4 -1.575) (end -2.475 -1.575) (layer "Dwgs.User") (width 0.01) (tstamp 7ff78f98-e2a5-41b8-8937-9aec4b20cdb1))
  (fp_line (start 0.2 2.245) (end 0.275 2.245) (layer "Dwgs.User") (width 0.01) (tstamp 81666d13-3957-4219-8819-d93312d7a451))
  (fp_line (start 2.475 -1.05) (end 2.475 -0.975) (layer "Dwgs.User") (width 0.01) (tstamp 81fa15ee-d32e-4719-b9af-4ffce86fe305))
  (fp_line (start 0.875 2.245) (end 0.875 2.385) (layer "Dwgs.User") (width 0.01) (tstamp 82069f8a-12ae-47ac-8781-3843c8976813))
  (fp_line (start -1.4 2.245) (end -1.4 2.385) (layer "Dwgs.User") (width 0.01) (tstamp 821a9928-a5ff-4792-8a06-59e4ab0d2f4f))
  (fp_line (start 1.8 2.245) (end 1.8 2.385) (layer "Dwgs.User") (width 0.01) (tstamp 835f939f-dd9d-414e-9e84-dd8385f361c2))
  (fp_line (start -2.475 -1.65) (end -2.4 -1.65) (layer "Dwgs.User") (width 0.01) (tstamp 83683a27-a4bd-47bc-8e7d-775c628b02c9))
  (fp_line (start -0.6 2.245) (end -0.525 2.245) (layer "Dwgs.User") (width 0.01) (tstamp 8426ec56-c11b-4289-bf67-cd4622512bef))
  (fp_line (start 2.175 2.245) (end 2.175 2.385) (layer "Dwgs.User") (width 0.01) (tstamp 846053be-e0f5-4603-9215-ed9f71fa11c5))
  (fp_line (start 0.375 2.245) (end 0.375 2.385) (layer "Dwgs.User") (width 0.01) (tstamp 84865600-8bf4-491b-b1ec-0135fbb7958b))
  (fp_line (start 2.4 -1.85) (end 2.4 -1.775) (layer "Dwgs.User") (width 0.01) (tstamp 85d09c67-67d9-4e31-91d0-40ba31c13f7e))
  (fp_line (start 1.575 2.245) (end 1.575 2.385) (layer "Dwgs.User") (width 0.01) (tstamp 8634bbf3-232d-44e2-898a-22ed87f4e083))
  (fp_line (start -0.725 2.385) (end -0.8 2.385) (layer "Dwgs.User") (width 0.01) (tstamp 86afad1b-84e7-4985-80da-5bd346d6b8af))
  (fp_line (start 2.475 -0.875) (end 2.4 -0.875) (layer "Dwgs.User") (width 0.01) (tstamp 8a285c77-9254-41a8-9e87-495afb2ad2e5))
  (fp_line (start -0.1 2.245) (end -0.025 2.245) (layer "Dwgs.User") (width 0.01) (tstamp 8ccb6778-030e-40dd-940b-993b4a1f55a1))
  (fp_line (start -0.5 2.245) (end -0.5 2.385) (layer "Dwgs.User") (width 0.01) (tstamp 8fe72557-b0e7-48c6-981d-72cccd6d9409))
  (fp_line (start -0.525 2.385) (end -0.6 2.385) (layer "Dwgs.User") (width 0.01) (tstamp 9006d94d-8bce-4f36-99c1-5287f826bdb2))
  (fp_line (start -2.475 -1.15) (end -2.475 -1.075) (layer "Dwgs.User") (width 0.01) (tstamp 904c3a60-4796-49e7-9b8e-2bbcfd6e2107))
  (fp_line (start 1.475 2.385) (end 1.4 2.385) (layer "Dwgs.User") (width 0.01) (tstamp 9177e0d4-e594-4a3a-bfec-a1e5b8bac267))
  (fp_line (start 2.4 -0.75) (end 2.475 -0.75) (layer "Dwgs.User") (width 0.01) (tstamp 91a59ce2-3c31-4cfb-ba67-b1aa4cd03c5f))
  (fp_line (start 2.475 -0.65) (end 2.475 -0.575) (layer "Dwgs.User") (width 0.01) (tstamp 922871bb-fbd9-4b45-800e-e08da284ef6d))
  (fp_line (start 2.475 -1.375) (end 2.4 -1.375) (layer "Dwgs.User") (width 0.01) (tstamp 92b4bb6c-8ca8-40c7-aaf6-56c0542940eb))
  (fp_line (start 2.475 -1.55) (end 2.475 -1.475) (layer "Dwgs.User") (width 0.01) (tstamp 96f4a548-9040-405d-86c0-870f872295c0))
  (fp_line (start -2.5 -2.45) (end -2.5 2.42) (layer "Dwgs.User") (width 0.01) (tstamp 97d99ed6-2477-4a27-a0db-f4a6546f0d16))
  (fp_line (start 1.9 2.245) (end 1.9 2.385) (layer "Dwgs.User") (width 0.01) (tstamp 9922d417-ebad-4689-a2e2-c9b3bdb76b9d))
  (fp_line (start -1.1 2.245) (end -1.1 2.385) (layer "Dwgs.User") (width 0.01) (tstamp 99283e32-fa1e-47d5-b7af-16da14765373))
  (fp_line (start 2.4 -0.55) (end 2.4 -0.475) (layer "Dwgs.User") (width 0.01) (tstamp 9955fb78-dd25-40c3-b6c2-4496d9e4ef1f))
  (fp_line (start -0.225 2.245) (end -0.225 2.385) (layer "Dwgs.User") (width 0.01) (tstamp 9a5eea72-4acb-44c7-bdb6-95f67f330f21))
  (fp_line (start -2.475 -0.95) (end -2.4 -0.95) (layer "Dwgs.User") (width 0.01) (tstamp 9bb96648-9511-49ba-963b-64653a7e357b))
  (fp_line (start 2.4 -0.65) (end 2.475 -0.65) (layer "Dwgs.User") (width 0.01) (tstamp 9bd05802-efad-4198-b339-8a2fc0ab678f))
  (fp_line (start -2.325 2.385) (end -2.4 2.385) (layer "Dwgs.User") (width 0.01) (tstamp 9c88e3a4-7fc9-4e6e-8123-7aa0345c5677))
  (fp_line (start -2.475 -1.15) (end -2.4 -1.15) (layer "Dwgs.User") (width 0.01) (tstamp 9e669a2b-c9f1-41f2-b0a3-e1efcc9d5141))
  (fp_line (start -0.625 2.385) (end -0.7 2.385) (layer "Dwgs.User") (width 0.01) (tstamp a02b0305-0f0b-460f-8398-fe5ffa65f37d))
  (fp_line (start 0.3 2.245) (end 0.375 2.245) (layer "Dwgs.User") (width 0.01) (tstamp a172de4a-3482-42e1-a755-0071b7725b7d))
  (fp_line (start -1.3 2.245) (end -1.225 2.245) (layer "Dwgs.User") (width 0.01) (tstamp a1b908cf-2b39-441f-8185-05481fd26962))
  (fp_line (start -2.475 -1.55) (end -2.4 -1.55) (layer "Dwgs.User") (width 0.01) (tstamp a208d9e2-1cea-436e-ba78-f20b74042ef9))
  (fp_line (start 2.275 2.385) (end 2.2 2.385) (layer "Dwgs.User") (width 0.01) (tstamp a21ffd7a-9947-44c8-8af3-42e6651b77f2))
  (fp_line (start -0.1 2.245) (end -0.1 2.385) (layer "Dwgs.User") (width 0.01) (tstamp a24e21e3-2c8b-42eb-879f-75b314e8a100))
  (fp_line (start 1.3 2.245) (end 1.375 2.245) (layer "Dwgs.User") (width 0.01) (tstamp a30ddf21-6752-4c6c-82f2-e5581338589a))
  (fp_line (start -1.1 2.245) (end -1.025 2.245) (layer "Dwgs.User") (width 0.01) (tstamp a5676daf-1780-4889-a41f-cc5be262c179))
  (fp_line (start 2.375 2.385) (end 2.3 2.385) (layer "Dwgs.User") (width 0.01) (tstamp a580f2f1-e95d-4b4f-8099-686f52f717cd))
  (fp_line (start 2.4 -1.95) (end 2.4 -1.875) (layer "Dwgs.User") (width 0.01) (tstamp a595872b-c8b1-47da-9c52-feddc20ad95f))
  (fp_line (start -0.325 2.385) (end -0.4 2.385) (layer "Dwgs.User") (width 0.01) (tstamp a616899c-9d0e-4253-b8a8-fba294089ef6))
  (fp_line (start 2.475 -1.15) (end 2.475 -1.075) (layer "Dwgs.User") (width 0.01) (tstamp a7316dd0-dbc7-45a0-83eb-c1406554b391))
  (fp_line (start -2.4 -1.65) (end -2.4 -1.575) (layer "Dwgs.User") (width 0.01) (tstamp a96562dc-e71e-4452-84bb-ef0140c24e07))
  (fp_line (start 2.4 -0.65) (end 2.4 -0.575) (layer "Dwgs.User") (width 0.01) (tstamp aab67c71-f429-4304-8a5d-0f30faa1c338))
  (fp_line (start -1.425 2.385) (end -1.5 2.385) (layer "Dwgs.User") (width 0.01) (tstamp aac8e9e1-c077-49a2-80bd-4289591d758c))
  (fp_line (start -2.4 -0.775) (end -2.475 -0.775) (layer "Dwgs.User") (width 0.01) (tstamp aae8f399-25f3-4163-8bb0-5fac7fa983c5))
  (fp_line (start 0.675 2.385) (end 0.6 2.385) (layer "Dwgs.User") (width 0.01) (tstamp ab00dad4-bf65-4915-ad0d-99f2af07091a))
  (fp_line (start -2.4 -2.25) (end -2.4 -2.175) (layer "Dwgs.User") (width 0.01) (tstamp acb49906-f02a-443d-a71d-a1f7d3abbb7d))
  (fp_line (start -0.825 2.385) (end -0.9 2.385) (layer "Dwgs.User") (width 0.01) (tstamp acce7cd9-f734-4035-b630-98d018b82654))
  (fp_line (start 2.4 -0.75) (end 2.4 -0.675) (layer "Dwgs.User") (width 0.01) (tstamp ad7597af-3852-400e-b509-ac24a6e249a6))
  (fp_line (start -2.4 -1.95) (end -2.4 -1.875) (layer "Dwgs.User") (width 0.01) (tstamp ad98deb3-1cff-493b-acec-b0207ccf54f6))
  (fp_line (start 2.475 -2.075) (end 2.4 -2.075) (layer "Dwgs.User") (width 0.01) (tstamp ad9b2f07-4a7a-448d-a9f0-902084ea4cb2))
  (fp_line (start -1.025 2.385) (end -1.1 2.385) (layer "Dwgs.User") (width 0.01) (tstamp ae5b3126-1383-49b9-90d5-65e8cd1062c0))
  (fp_line (start -2.2 2.245) (end -2.2 2.385) (layer "Dwgs.User") (width 0.01) (tstamp b10129a4-974d-4125-b0af-427fcf6128bb))
  (fp_line (start 0.575 2.385) (end 0.5 2.385) (layer "Dwgs.User") (width 0.01) (tstamp b3ed2a82-6639-4b78-b184-2192544ab5cb))
  (fp_line (start -1 2.245) (end -0.925 2.245) (layer "Dwgs.User") (width 0.01) (tstamp b4be07bb-a43b-416d-9a32-4b55c0b787e0))
  (fp_line (start -0.425 2.385) (end -0.5 2.385) (layer "Dwgs.User") (width 0.01) (tstamp b4fa1586-56ee-4a1e-bb75-e35abd6570fb))
  (fp_line (start 1 2.245) (end 1 2.385) (layer "Dwgs.User") (width 0.01) (tstamp b6d84c8a-881c-49fa-8bf2-424e3eb0dd16))
  (fp_line (start 2.475 -1.175) (end 2.4 -1.175) (layer "Dwgs.User") (width 0.01) (tstamp b6e7f585-63e0-4d84-8a39-65feb77f08cb))
  (fp_line (start -2.475 -1.95) (end -2.4 -1.95) (layer "Dwgs.User") (width 0.01) (tstamp b716dcba-e704-46bb-9df5-9126f28d0d80))
  (fp_line (start -1.725 2.245) (end -1.725 2.385) (layer "Dwgs.User") (width 0.01) (tstamp b86b8c44-d16c-4fed-8ae9-59b9f5584dbf))
  (fp_line (start 2.375 1.98) (end 2.375 2.055) (layer "Dwgs.User") (width 0.01) (tstamp b8d8fef3-be99-4a12-a125-6cb2ebc73a5c))
  (fp_line (start -2.225 2.245) (end -2.225 2.385) (layer "Dwgs.User") (width 0.01) (tstamp ba7d89be-848f-4844-b068-8cbe46cf005c))
  (fp_line (start 0.5 2.245) (end 0.575 2.245) (layer "Dwgs.User") (width 0.01) (tstamp bb1f289d-922f-44e4-9c8e-1f899118e6aa))
  (fp_line (start 2.475 -1.275) (end 2.4 -1.275) (layer "Dwgs.User") (width 0.01) (tstamp bb9c450f-420e-44d8-a826-34c89ce25a7a))
  (fp_line (start -1.9 2.245) (end -1.9 2.385) (layer "Dwgs.User") (width 0.01) (tstamp bdbf8c29-b639-4a13-af1c-31325b5fa58f))
  (fp_line (start -2.2 2.245) (end -2.125 2.245) (layer "Dwgs.User") (width 0.01) (tstamp be3cb369-5789-4811-bb38-6ebaa2dbe831))
  (fp_line (start 2.075 2.385) (end 2 2.385) (layer "Dwgs.User") (width 0.01) (tstamp be56d867-478d-4c4d-8f12-02c9fe8c6de6))
  (fp_line (start -0.2 2.245) (end -0.2 2.385) (layer "Dwgs.User") (width 0.01) (tstamp bfe9b776-28c1-465a-9365-5ef76ae90a24))
  (fp_line (start -2.4 -1.75) (end -2.4 -1.675) (layer "Dwgs.User") (width 0.01) (tstamp c05da1b8-1530-4f87-932e-e98a73e23893))
  (fp_line (start 0.175 2.385) (end 0.1 2.385) (layer "Dwgs.User") (width 0.01) (tstamp c226a430-f7cb-4b36-9e6d-04f440708fa4))
  (fp_line (start -0.7 2.245) (end -0.625 2.245) (layer "Dwgs.User") (width 0.01) (tstamp c34eaed6-9f59-411a-8166-e33f481a6891))
  (fp_line (start 1.2 2.245) (end 1.2 2.385) (layer "Dwgs.User") (width 0.01) (tstamp c44184f1-b174-43a7-9b9e-ce89ddd95faf))
  (fp_line (start -0.8 2.245) (end -0.725 2.245) (layer "Dwgs.User") (width 0.01) (tstamp c50360ee-f0ef-4f15-b156-b3e271abc9b6))
  (fp_line (start 2.475 -0.85) (end 2.475 -0.775) (layer "Dwgs.User") (width 0.01) (tstamp c71f9bac-236c-4b72-8bea-7f63bd452f34))
  (fp_line (start -1.325 2.385) (end -1.4 2.385) (layer "Dwgs.User") (width 0.01) (tstamp c7717613-4faa-4161-9a40-5544370ad94b))
  (fp_line (start 2.475 -1.35) (end 2.475 -1.275) (layer "Dwgs.User") (width 0.01) (tstamp c7941e2e-70eb-4de9-bd0d-1b8fa9596356))
  (fp_line (start -0.425 2.245) (end -0.425 2.385) (layer "Dwgs.User") (width 0.01) (tstamp c8121ee9-d02a-4fe9-9e27-324c22341025))
  (fp_line (start 2.075 2.245) (end 2.075 2.385) (layer "Dwgs.User") (width 0.01) (tstamp cb121c09-5ad8-4727-930e-1e252e34b0fb))
  (fp_line (start 2.475 -1.95) (end 2.475 -1.875) (layer "Dwgs.User") (width 0.01) (tstamp cb5c7733-9aa2-4d83-9640-3ddb9d40e014))
  (fp_line (start 2.4 -1.25) (end 2.475 -1.25) (layer "Dwgs.User") (width 0.01) (tstamp d07011de-c067-40f5-a310-6f89e9a91355))
  (fp_line (start 2 2.245) (end 2.075 2.245) (layer "Dwgs.User") (width 0.01) (tstamp d1684936-591e-423d-9768-88eed0174ae1))
  (fp_line (start -2.475 -2.25) (end -2.4 -2.25) (layer "Dwgs.User") (width 0.01) (tstamp d196103e-613b-4387-8a9e-7ba322a1d5a3))
  (fp_line (start -0.2 2.245) (end -0.125 2.245) (layer "Dwgs.User") (width 0.01) (tstamp d1a6dea6-d848-4722-a189-2c1df328b92a))
  (fp_line (start -1.425 2.245) (end -1.425 2.385) (layer "Dwgs.User") (width 0.01) (tstamp d26ad0f1-53eb-47c6-b671-a012bae9b9a0))
  (fp_line (start -2.475 -1.05) (end -2.4 -1.05) (layer "Dwgs.User") (width 0.01) (tstamp d2b6d799-5145-41b4-b1f6-54d72f428cc2))
  (fp_line (start -2.4 -1.475) (end -2.475 -1.475) (layer "Dwgs.User") (width 0.01) (tstamp d383e725-4983-4927-851a-dc5b6c625e8a))
  (fp_line (start -2.125 2.385) (end -2.2 2.385) (layer "Dwgs.User") (width 0.01) (tstamp d38872b1-c9ae-462e-9a17-3d4b46217678))
  (fp_line (start 2.175 2.385) (end 2.1 2.385) (layer "Dwgs.User") (width 0.01) (tstamp d3a6b405-d728-4d82-8438-2c1175f6d651))
  (fp_line (start 2.4 -0.85) (end 2.475 -0.85) (layer "Dwgs.User") (width 0.01) (tstamp d407b67b-626f-4c72-8700-3d1c173ce8a2))
  (fp_line (start 2.475 -1.45) (end 2.475 -1.375) (layer "Dwgs.User") (width 0.01) (tstamp d432f88f-a831-485b-82fe-aa2924dd928f))
  (fp_line (start 0.775 2.385) (end 0.7 2.385) (layer "Dwgs.User") (width 0.01) (tstamp d44d649e-ea8d-4880-9c9d-ff32ad6da0eb))
  (fp_line (start 1.175 2.385) (end 1.1 2.385) (layer "Dwgs.User") (width 0.01) (tstamp d5ec4ec2-5d08-4543-95f3-054b4157fff0))
  (fp_line (start -2.4 -1.85) (end -2.4 -1.775) (layer "Dwgs.User") (width 0.01) (tstamp d8e7adf4-7b6d-4e12-856a-cf8034de49e2))
  (fp_line (start -0.325 2.245) (end -0.325 2.385) (layer "Dwgs.User") (width 0.01) (tstamp d9e5c5dd-6e5e-4814-82da-d5f683ca456a))
  (fp_line (start -2.025 2.245) (end -2.025 2.385) (layer "Dwgs.User") (width 0.01) (tstamp db2a0987-d2c4-4452-a82b-c54c2ed8a2dc))
  (fp_line (start 2.1 2.245) (end 2.175 2.245) (layer "Dwgs.User") (width 0.01) (tstamp dbaf42e2-4b04-4b6b-886e-cb20c61645b2))
  (fp_line (start 1.4 2.245) (end 1.475 2.245) (layer "Dwgs.User") (width 0.01) (tstamp dc1550c7-9eef-49fa-a1af-f6cc3326048a))
  (fp_line (start -0.925 2.385) (end -1 2.385) (layer "Dwgs.User") (width 0.01) (tstamp dc8f7770-859e-4650-acae-4a3765df9300))
  (fp_line (start -2 2.245) (end -2 2.385) (layer "Dwgs.User") (width 0.01) (tstamp dd3531e0-e3fc-4df8-9acb-81dd9e0a1830))
  (fp_line (start 0.975 2.245) (end 0.975 2.385) (layer "Dwgs.User") (width 0.01) (tstamp ddcee5da-35b7-4566-88e9-d804466b966b))
  (fp_line (start 2.4 -0.95) (end 2.475 -0.95) (layer "Dwgs.User") (width 0.01) (tstamp df0ccd62-87e7-4a9e-ae13-d54e12c83556))
  (fp_line (start -1.5 2.245) (end -1.425 2.245) (layer "Dwgs.User") (width 0.01) (tstamp e00f1e80-8de7-4fbc-bbbb-c8f7e1aaed4d))
  (fp_line (start 1.6 2.245) (end 1.675 2.245) (layer "Dwgs.User") (width 0.01) (tstamp e01a38ff-916f-4e8e-b4f6-f609d6e2ec77))
  (fp_line (start 2.475 -1.475) (end 2.4 -1.475) (layer "Dwgs.User") (width 0.01) (tstamp e044a9b8-561c-4797-9454-0879ce4680b8))
  (fp_line (start 2.475 -0.95) (end 2.475 -0.875) (layer "Dwgs.User") (width 0.01) (tstamp e059ef97-5bed-4718-ab8b-8b2e405c1d14))
  (fp_line (start 0.475 2.245) (end 0.475 2.385) (layer "Dwgs.User") (width 0.01) (tstamp e258de9a-855c-4879-ae89-3ce3271f0c75))
  (fp_line (start 1.5 2.245) (end 1.5 2.385) (layer "Dwgs.User") (width 0.01) (tstamp e2648d35-b199-4693-88f3-55d11dad50c8))
  (fp_line (start -0.3 2.245) (end -0.3 2.385) (layer "Dwgs.User") (width 0.01) (tstamp e29330f7-48e7-4467-a600-1d36836a4b09))
  (fp_line (start 0 2.245) (end 0 2.385) (layer "Dwgs.User") (width 0.01) (tstamp e2a2185c-9e5f-43a9-acaa-97217d5dd1ee))
  (fp_line (start -2.475 -1.95) (end -2.475 -1.875) (layer "Dwgs.User") (width 0.01) (tstamp e2fd5988-215e-45bc-a349-6caf2685ec0b))
  (fp_line (start 2.4 -1.35) (end 2.4 -1.275) (layer "Dwgs.User") (width 0.01) (tstamp e4333905-e621-431f-8d08-08f623b4b040))
  (fp_line (start -2.475 -0.85) (end -2.4 -0.85) (layer "Dwgs.User") (width 0.01) (tstamp e4562d0e-9dba-4d53-9dfc-18a933f9f5a4))
  (fp_line (start 2.4 -1.55) (end 2.475 -1.55) (layer "Dwgs.User") (width 0.01) (tstamp e5871958-8a2f-4fbd-99ed-0143e2cb182d))
  (fp_line (start -2.475 -1.25) (end -2.4 -1.25) (layer "Dwgs.User") (width 0.01) (tstamp e5ab54da-fff8-48b3-8283-3caa9ab18b51))
  (fp_line (start -1.825 2.245) (end -1.825 2.385) (layer "Dwgs.User") (width 0.01) (tstamp e74624ac-400f-4145-9cbc-a0fe33f9e428))
  (fp_line (start -1.625 2.245) (end -1.625 2.385) (layer "Dwgs.User") (width 0.01) (tstamp e76d062e-8016-4145-8455-22c2ad772468))
  (fp_line (start -2.475 -2.25) (end -2.475 -2.175) (layer "Dwgs.User") (width 0.01) (tstamp e78b9ea8-f021-42b0-89ba-4bc6d4ca5950))
  (fp_line (start 0.1 2.245) (end 0.175 2.245) (layer "Dwgs.User") (width 0.01) (tstamp e832d1bd-55a8-4817-9dfd-daf3abe23da5))
  (fp_line (start 1.9 2.245) (end 1.975 2.245) (layer "Dwgs.User") (width 0.01) (tstamp ea78b343-9997-4527-91fc-a77165c7f6f1))
  (fp_line (start -2.475 -1.75) (end -2.475 -1.675) (layer "Dwgs.User") (width 0.01) (tstamp eb85ddf4-1a6d-41bb-aec0-3b885591b75e))
  (fp_line (start 0.8 2.245) (end 0.875 2.245) (layer "Dwgs.User") (width 0.01) (tstamp ee5d1f33-fbaf-4cca-bf2e-2c69f4931550))
  (fp_line (start 0.075 2.385) (end 0 2.385) (layer "Dwgs.User") (width 0.01) (tstamp f02b211e-7e09-4054-a727-542a7d84d578))
  (fp_line (start -0.925 2.245) (end -0.925 2.385) (layer "Dwgs.User") (width 0.01) (tstamp f1050860-d0ec-4e39-aaa5-a928bb4ad4ae))
  (fp_line (start 2.475 -1.875) (end 2.4 -1.875) (layer "Dwgs.User") (width 0.01) (tstamp f173c4ab-4c66-479d-a811-202d5e72b88c))
  (fp_line (start -2.4 -0.975) (end -2.475 -0.975) (layer "Dwgs.User") (width 0.01) (tstamp f229c277-c991-48b7-aa06-d233bfd96766))
  (fp_line (start 0.4 2.245) (end 0.4 2.385) (layer "Dwgs.User") (width 0.01) (tstamp f34a10cd-c74b-449f-9b39-60495bab0c6f))
  (fp_line (start 0.175 2.245) (end 0.175 2.385) (layer "Dwgs.User") (width 0.01) (tstamp f39dee84-687d-4e7b-a274-1c899481b2f3))
  (fp_line (start -1.525 2.245) (end -1.525 2.385) (layer "Dwgs.User") (width 0.01) (tstamp f4341b6b-0d98-416d-8789-77edc9457792))
  (fp_line (start 2.475 -1.575) (end 2.4 -1.575) (layer "Dwgs.User") (width 0.01) (tstamp f4410f94-34dd-46c1-9025-f7c1b560d132))
  (fp_line (start 1.5 2.245) (end 1.575 2.245) (layer "Dwgs.User") (width 0.01) (tstamp f68c309e-70c9-40c2-a372-1eca5f8c2ed9))
  (fp_line (start 2.4 -0.95) (end 2.4 -0.875) (layer "Dwgs.User") (width 0.01) (tstamp f7e37006-41c7-45cb-8c61-e1592dd8154b))
  (fp_line (start 0.675 2.245) (end 0.675 2.385) (layer "Dwgs.User") (width 0.01) (tstamp f8501f8b-8aba-4a14-b238-c9f137b75604))
  (fp_line (start -2.4 -1.45) (end -2.4 -1.375) (layer "Dwgs.User") (width 0.01) (tstamp f8d437dc-bd4e-486e-86f2-2ce0f63a0988))
  (fp_line (start -2.4 -1.15) (end -2.4 -1.075) (layer "Dwgs.User") (width 0.01) (tstamp f8eb7779-54d3-4c53-85ff-c4233d39a326))
  (fp_line (start 1.8 2.245) (end 1.875 2.245) (layer "Dwgs.User") (width 0.01) (tstamp fb324bec-141b-49e4-8ec1-a86665bf349d))
  (fp_line (start -1.6 2.245) (end -1.6 2.385) (layer "Dwgs.User") (width 0.01) (tstamp fc3ce96e-ea3f-489f-a01d-4f7743dca1e1))
  (fp_line (start -0.8 2.245) (end -0.8 2.385) (layer "Dwgs.User") (width 0.01) (tstamp feb9bc1a-b124-425c-b5f4-aea1c246ad92))
  (fp_line (start 2.475 -1.65) (end 2.475 -1.575) (layer "Dwgs.User") (width 0.01) (tstamp ffd4f33a-a082-4ecf-9bfd-6ae1b710f456))
  (fp_line (start 2.2 2.245) (end 2.2 2.385) (layer "Dwgs.User") (width 0.01) (tstamp ffe39c3b-096f-4bbf-bc17-25d66f6aa0b3))
  (fp_line (start 2.5 -2.95) (end 3 -2.95) (layer "Cmts.User") (width 0.1) (tstamp 077c7355-e520-4ba9-8867-ca4d61564599))
  (fp_line (start 4.85 5.4) (end 5.35 5.4) (layer "Cmts.User") (width 0.1) (tstamp 07a8316f-822c-4763-beaf-d3393610ffff))
  (fp_line (start -5.3 5.25) (end -4.8 5.25) (layer "Cmts.User") (width 0.1) (tstamp 0c68b114-cdfb-45e7-95dd-6d66b608eab3))
  (fp_line (start 2.7 -4.2) (end 2.2 -4.2) (layer "Cmts.User") (width 0.1) (tstamp 19c29fa2-e366-4f53-b528-58788b0a28ae))
  (fp_line (start 3 -2.95) (end 3 -2.45) (layer "Cmts.User") (width 0.1) (tstamp 313217c0-fabb-4699-9c0c-0a8eac92c65e))
  (fp_line (start -6.65 0.7) (end -6.65 0.2) (layer "Cmts.User") (width 0.1) (tstamp 421535be-1d1d-4297-8bde-1738a98b3f1a))
  (fp_line (start -5.05 5.5) (end -5.05 5) (layer "Cmts.User") (width 0.1) (tstamp 428225e0-522a-4dbe-b569-5935a329bed1))
  (fp_line (start 6.5 1.2) (end 7 1.2) (layer "Cmts.User") (width 0.1) (tstamp 4c5c8866-0911-4534-b3ba-f6962240c733))
  (fp_line (start -3 2.42) (end -3 2.92) (layer "Cmts.User") (width 0.1) (tstamp 66c077c3-9456-458f-a6da-8f3b12c7f847))
  (fp_line (start 3 2.42) (end 3 2.92) (layer "Cmts.User") (width 0.1) (tstamp 671fae65-3a90-40e8-9527-ab7148332392))
  (fp_line (start 2.5 2.92) (end 3 2.92) (layer "Cmts.User") (width 0.1) (tstamp 7f21a434-16d2-4e78-a9c6-4e616b57253f))
  (fp_line (start 6.75 1.45) (end 6.75 0.95) (layer "Cmts.User") (width 0.1) (tstamp 8295f230-f222-492a-a7ce-8faec870b3e1))
  (fp_line (start -0.0508 2.286) (end -0.0508 7.7216) (layer "Cmts.User") (width 0.12) (tstamp b1a95e7e-ea96-49e6-b18f-165f34f7b678))
  (fp_line (start -2.5 -2.95) (end -3 -2.95) (layer "Cmts.User") (width 0.1) (tstamp c174c2ef-ec5c-4d33-a7bb-49227cc06de6))
  (fp_line (start 6.7564 8.2804) (end 2.3368 2.3368) (layer "Cmts.User") (width 0.12) (tstamp c451af60-0151-4e29-ac2e-9442ede8619e))
  (fp_line (start -2.7 -4.2) (end -2.2 -4.2) (layer "Cmts.User") (width 0.1) (tstamp c80f5606-3371-4074-90af-035385fe5c25))
  (fp_line (start 2.3368 2.286) (end 5.9436 6.4516) (layer "Cmts.User") (width 0.12) (tstamp c93db6a3-1c4b-4506-aebd-d44a107e32c3))
  (fp_line (start -3 2.92) (end -2.5 2.92) (layer "Cmts.User") (width 0.1) (tstamp cd3ae108-b2b4-48ba-9db1-51ab8da36a4d))
  (fp_line (start -3 -2.95) (end -3 -2.45) (layer "Cmts.User") (width 0.1) (tstamp cd98d157-83f3-492e-8ae0-bca57f96a328))
  (fp_line (start 5.1 5.65) (end 5.1 5.15) (layer "Cmts.User") (width 0.1) (tstamp d5151e50-d11c-4b2d-aefc-4ef64ed4ecb6))
  (fp_line (start -2.3876 2.286) (end -6.7056 8.2296) (layer "Cmts.User") (width 0.12) (tstamp f34c01a4-714a-4887-ba7a-25c9a15d3060))
  (fp_line (start -2.3368 2.286) (end -6.0452 6.35) (layer "Cmts.User") (width 0.12) (tstamp f51d6fc3-db2b-48e7-a365-6ea70f70f761))
  (fp_line (start -6.9 0.45) (end -6.4 0.45) (layer "Cmts.User") (width 0.1) (tstamp fff9cc3b-d78c-4e71-acdd-aaba12c7bbef))
  (fp_line (start 1.0425 2.31625) (end 1.3175 3.22375) (layer "User.3") (width 0.05) (tstamp 037b4217-3289-4f8e-8e5e-6731d6deac9e))
  (fp_line (start 1.43 2.31) (end 1.93 3.2) (layer "User.3") (width 0.05) (tstamp 04006109-7101-4d04-8e3e-e730c92b50e0))
  (fp_line (start 0.84 2.305) (end 1.19 3.98) (layer "User.3") (width 0.05) (tstamp 0a0fb406-86a6-48d5-8cf9-333b1a2eb90d))
  (fp_line (start -2.16 2.33) (end -2.69 3.21) (layer "User.3") (width 0.05) (tstamp 134699c0-0c91-436a-a900-827e19b38e51))
  (fp_line (start 2.43375 -1.815) (end 7.13 -2.6) (layer "User.3") (width 0.05) (tstamp 158c4f67-4cfc-4af7-8766-8c6d6151c223))
  (fp_line (start -6.02 0.12) (end -2.45 -1.1075) (layer "User.3") (width 0.05) (tstamp 235aaca3-af93-4777-9e68-6e21999db328))
  (fp_line (start 2.42 -1.205) (end 7.03 -0.68) (layer "User.3") (width 0.05) (tstamp 2a2a4c74-a779-489c-bf99-31f7d3816cda))
  (fp_line (start -2.38 2.315) (end -3.05 3.22) (layer "User.3") (width 0.05) (tstamp 303de800-9393-46c1-a6e6-0f89f597d8ad))
  (fp_line (start -5.95 -3.085) (end -2.43 -1.91) (layer "User.3") (width 0.05) (tstamp 40b1d1a4-2099-4740-89b2-3f05c42e52cc))
  (fp_line (start -1.55 2.32) (end -1.89 3.2) (layer "User.3") (width 0.05) (tstamp 49a51bd6-268d-4efb-bb72-92535a620e84))
  (fp_line (start 2.03 2.32) (end 2.69 3.2) (layer "User.3") (width 0.05) (tstamp 66f5016b-6785-4ca8-822f-c93a40031466))
  (fp_line (start 0.03 2.315) (end 0.13 3.98) (layer "User.3") (width 0.05) (tstamp 6808ed34-d3e2-4b00-a37d-cf9b5a81e3d4))
  (fp_line (start 2.43 -1.01) (end 7 -0.03) (layer "User.3") (width 0.05) (tstamp 7170110d-ed65-4041-8ecc-701a185f468b))
  (fp_line (start -0.36 2.31) (end -0.36 3.2) (layer "User.3") (width 0.05) (tstamp 76fe3446-349b-40b2-a7fd-98e19234b2d4))
  (fp_line (start -1.955 2.33) (end -2.41 3.2) (layer "User.3") (width 0.05) (tstamp 86ebf3c7-7389-4e79-bbab-2a3279964751))
  (fp_line (start 2.23 2.33) (end 2.95 3.24) (layer "User.3") (width 0.05) (tstamp 86efd741-cf41-452d-bc96-d40b79bd2485))
  (fp_line (start -1.07 2.33) (end -1.37 3.21) (layer "User.3") (width 0.05) (tstamp 871c925f-faeb-4678-950e-39e11330be38))
  (fp_line (start -5.93 -1.5) (end -2.43 -1.51) (layer "User.3") (width 0.05) (tstamp 8c269154-d3f5-4c6b-ad69-f2586ae607a4))
  (fp_line (start -5.95 -0.69) (end -2.43 -1.305) (layer "User.3") (width 0.05) (tstamp 8cce7660-e506-4962-a243-f1d9b3ace9c8))
  (fp_line (start 1.24 2.3125) (end 1.62 3.22) (layer "User.3") (width 0.05) (tstamp 9a61f7b6-0f5f-4e08-9341-dfa9714a4b18))
  (fp_line (start -1.36 2.32) (end -1.64 3.22) (layer "User.3") (width 0.05) (tstamp a40e90f8-fef6-453d-a857-2d7e33120ee8))
  (fp_line (start 2.43 -1.41) (end 7.19 -1.32) (layer "User.3") (width 0.05) (tstamp a8522912-00b0-47b5-be0c-1c1010240415))
  (fp_line (start 2.43 -0.81) (end 7.04 0.61) (layer "User.3") (width 0.05) (tstamp a9467047-18a5-434b-8b36-c6e37d66b2c4))
  (fp_line (start 1.83 2.315) (end 2.43 3.21) (layer "User.3") (width 0.05) (tstamp ac97ae56-13e9-4255-949b-27305579ab1b))
  (fp_line (start 1.63 2.32) (end 2.19 3.23) (layer "User.3") (width 0.05) (tstamp b3035412-27b8-42aa-afec-78eacc029e68))
  (fp_line (start -5.99 -2.3) (end -2.44 -1.71) (layer "User.3") (width 0.05) (tstamp b8aef584-eac0-4d3d-8f0f-46e71f3f926c))
  (fp_line (start -0.655 2.315) (end -0.87 3.23) (layer "User.3") (width 0.05) (tstamp bbff9f54-8191-48d8-87ba-fbe52b89e80e))
  (fp_line (start 0.34 2.3075) (end 0.65 3.9725) (layer "User.3") (width 0.05) (tstamp bc6f5e95-fa78-4816-9e0c-21ecf8337502))
  (fp_line (start -1.7625 2.325) (end -2.15 3.21) (layer "User.3") (width 0.05) (tstamp be9778a2-f27a-480d-a386-760b4d1b6f28))
  (fp_line (start -0.96 2.33) (end -1.13 3.2) (layer "User.3") (width 0.05) (tstamp cbda3f22-3a8a-4f17-821f-0fbd977a04a9))
  (fp_line (start -0.55 2.31) (end -0.61 3.21) (layer "User.3") (width 0.05) (tstamp d161743e-a339-4207-81c3-da1d97661057))
  (fp_line (start 0.645 2.3125) (end 0.92 3.22) (layer "User.3") (width 0.05) (tstamp d1efd8a9-cbb1-4e1c-bb5b-601f5b618f27))
  (fp_line (start -0.16 2.315) (end -0.13 3.21) (layer "User.3") (width 0.05) (tstamp de3f0a37-3682-49a9-8c40-1c26c8a51ffd))
  (fp_line (start 2.44 -0.61) (end 7.21 1.27) (layer "User.3") (width 0.05) (tstamp e9e9406f-ee20-41e3-a79d-ac80f91afd36))
  (fp_line (start 2.44 -1.61) (end 6.98 -1.96) (layer "User.3") (width 0.05) (tstamp f0027e39-925f-4f1e-aa5e-1cfd4edd3d61))
  (fp_line (start 0.235 2.3125) (end 0.41 3.21) (layer "User.3") (width 0.05) (tstamp fbba8c2a-ccfc-4926-975b-f81782323438))
  (fp_line (start -6.08 0.91) (end -2.425 -0.91375) (layer "User.3") (width 0.05) (tstamp fc5edca6-9123-457e-bdc2-929524fe840c))
  (fp_line (start -1.26 2.31) (end -2.92 6.4) (layer "User.4") (width 0.05) (tstamp 02677609-5603-4305-b155-7ead093a22ca))
  (fp_line (start 0.535 2.32) (end 0.96 6.41) (layer "User.4") (width 0.05) (tstamp 03f212cd-b879-4052-8048-6a12da7d4e59))
  (fp_line (start -1.66 2.33) (end -4.44 6.41) (layer "User.4") (width 0.05) (tstamp 0ca23f41-ce4e-4a3b-9177-3ccda2326103))
  (fp_line (start 1.14 2.32) (end 2.54 6.39) (layer "User.4") (width 0.05) (tstamp 1a594059-6b03-4d3e-951f-fcf3ec2ce4c7))
  (fp_line (start 0.14 2.3) (end -0.35 6.42) (layer "User.4") (width 0.05) (tstamp 235bb989-8213-4e2a-838b-7bd6b121b0e1))
  (fp_line (start -4.04 -0.19) (end -2.43 -0.805) (layer "User.4") (width 0.05) (tstamp 25b8758c-0d28-4b74-8f17-8b3363187201))
  (fp_line (start -2.44 -4.5) (end -2.44 -2.21) (layer "User.4") (width 0.05) (tstamp 2ad47227-0c89-4e7f-991f-b66af18dd4e8))
  (fp_line (start 0.9375 2.3) (end 2.29 6.41) (layer "User.4") (width 0.05) (tstamp 325dab2a-bfd2-4be7-a9f0-c795fa11fbb9))
  (fp_line (start 2.43 -0.52) (end 4.86 0.62) (layer "User.4") (width 0.05) (tstamp 3fdebdec-c70e-40aa-9d11-cc35288859f9))
  (fp_line (start -4.02 -1.01) (end -2.44 -1.21) (layer "User.4") (width 0.05) (tstamp 469138aa-6122-4189-be9f-3c1f78a7a2cd))
  (fp_line (start -0.455 2.31375) (end -1.14 6.40625) (layer "User.4") (width 0.05) (tstamp 4c8b8bc2-b440-47a0-a491-8ae548d210c9))
  (fp_line (start 0.735 2.3) (end 1.22 6.4) (layer "User.4") (width 0.05) (tstamp 4f3bd057-a3c4-44df-94d0-e3bb96a88717))
  (fp_line (start -3.99 -1.82) (end -2.44 -1.61) (layer "User.4") (width 0.05) (tstamp 55cec8e7-27d0-4957-90ca-a8bf571ee756))
  (fp_line (start 2.13 2.32) (end 5.04 6.4) (layer "User.4") (width 0.05) (tstamp 6fce38b9-7866-4ed0-907e-ff355d6a399c))
  (fp_line (start 2.43 -1.31) (end 5.2 -1.17) (layer "User.4") (width 0.05) (tstamp 753eba5f-71ba-41be-9a83-d2b8db9fa5eb))
  (fp_line (start 1.94 2.31) (end 4.79 6.41) (layer "User.4") (width 0.05) (tstamp 77df3fda-6755-4f8a-97d5-f9ae16e78efa))
  (fp_line (start -1.16 2.32) (end -2.67 6.4) (layer "User.4") (width 0.05) (tstamp 78e0cbda-4f9d-4b56-975b-35b21bb1ad46))
  (fp_line (start -1.46 2.33) (end -4.19 6.4) (layer "User.4") (width 0.05) (tstamp 7cf1bd38-e5b2-4b9a-8544-21846fcefb1f))
  (fp_line (start -0.26 2.3175) (end -0.85 6.41) (layer "User.4") (width 0.05) (tstamp 82b44693-edc1-421e-96b9-069db5055b40))
  (fp_line (start 2.43 -4.57) (end 2.44 -2.11) (layer "User.4") (width 0.05) (tstamp 83fe35c9-19c7-4ed4-ad2c-975641767e77))
  (fp_line (start 2.43 -0.91) (end 4.99 -0.27) (layer "User.4") (width 0.05) (tstamp 872f5fdd-9b83-44b1-a7d6-f621cacbcf55))
  (fp_line (start 1.54 2.31) (end 4.28 6.42) (layer "User.4") (width 0.05) (tstamp 9c379b39-18d1-425a-bed9-d9ec7af3300e))
  (fp_line (start 0.435 2.32) (end 0.73 6.4) (layer "User.4") (width 0.05) (tstamp 9dd883b6-007a-4456-b408-fd245be9ce8b))
  (fp_line (start -2.26 2.32) (end -5.2 6.43) (layer "User.4") (width 0.05) (tstamp a15cc10f-ac8a-4b98-94be-3f25361ed940))
  (fp_line (start -0.06 2.32) (end -0.6 6.42) (layer "User.4") (width 0.05) (tstamp a4058073-54ca-4dba-9d38-af6bd289bade))
  (fp_line (start 2.42 -1.71) (end 4.92 -2.05) (layer "User.4") (width 0.05) (tstamp a856d5cf-e736-426a-b3cd-6e06df591aca))
  (fp_line (start 2.43375 -1.91) (end 5.01 -2.46) (layer "User.4") (width 0.05) (tstamp ad949056-dde6-44e4-ac89-eb56abda7324))
  (fp_line (start -0.86 2.315) (end -2.42 6.42) (layer "User.4") (width 0.05) (tstamp adea22e3-ee57-4e85-97af-0a3aae7726d7))
  (fp_line (start 1.34 2.31) (end 2.8 6.4) (layer "User.4") (width 0.05) (tstamp b4a049b0-f7aa-442a-99c5-51faa9d66cb2))
  (fp_line (start 2.43 -1.11) (end 4.85 -0.74) (layer "User.4") (width 0.05) (tstamp b5b4cced-4733-43b0-9055-e850a8136926))
  (fp_line (start -4.04 -1.4) (end -2.445 -1.415) (layer "User.4") (width 0.05) (tstamp b9facb61-0504-4c1e-82ea-daf0f064782d))
  (fp_line (start -1.87 2.34) (end -4.69 6.41) (layer "User.4") (width 0.05) (tstamp bb6f0318-8e99-4652-b199-ee2bb1b32ab9))
  (fp_line (start -3.91 -2.23) (end -2.44 -1.81) (layer "User.4") (width 0.05) (tstamp bed5c3e6-4616-4dd3-a197-850d2ae51f2a))
  (fp_line (start -2.05 2.34) (end -4.94 6.41) (layer "User.4") (width 0.05) (tstamp bef1b1d7-1e85-4799-b1c7-008f07a60976))
  (fp_line (start 1.74 2.305) (end 4.53 6.41) (layer "User.4") (width 0.05) (tstamp bf4669c6-2b8c-4239-a49d-1109821ed466))
  (fp_line (start 2.43 -1.51) (end 5.11 -1.61) (layer "User.4") (width 0.05) (tstamp c066aaec-0386-4df1-b459-ca64ac7ec06b))
  (fp_line (start 2.33 2.32) (end 5.3 6.41) (layer "User.4") (width 0.05) (tstamp c915c548-ea5f-4e01-95c2-a8484b52c847))
  (fp_line (start -0.75 2.3075) (end -2.18 6.4) (layer "User.4") (width 0.05) (tstamp dbb57ee6-f719-4de9-9aa0-e8b13c7b6410))
  (fp_line (start -4.04 -0.62) (end -2.44 -1.01) (layer "User.4") (width 0.05) (tstamp e2851da5-107e-40bc-aae5-c6cd918eb722))
  (fp_line (start 2.44 -0.71) (end 4.95 0.16) (layer "User.4") (width 0.05) (tstamp e5d0ad95-50e0-459a-b2d5-a2c6be42856b))
  (fp_line (start 2.32 2.02) (end 5.14625 2.235) (layer "User.4") (width 0.05) (tstamp f8a53869-83c3-4975-ab12-c7d6035e9177))
  (pad "1" smd rect (at -2.997617 3.2004) (locked) (size 0.15 0.15) (layers "F.Cu" "F.Paste" "F.Mask") (tstamp 02490946-1c2a-45b9-8d44-73cf5bda07b5))
  (pad "2" smd rect (at -5.1912 6.4008) (locked) (size 0.15 0.15) (layers "F.Cu" "F.Paste" "F.Mask") (tstamp ee719b80-c7b1-4618-b6f8-77355bb032b9))
  (pad "3" smd rect (at -2.6924 3.2004) (locked) (size 0.15 0.15) (layers "F.Cu" "F.Paste" "F.Mask") (tstamp 4d4b94f7-b1e9-4161-b33f-e67006b56034))
  (pad "4" smd rect (at -4.9412 6.4008) (locked) (size 0.15 0.15) (layers "F.Cu" "F.Paste" "F.Mask") (tstamp 7dd7833d-9354-4437-9f35-1095aeb0ce98))
  (pad "5" smd rect (at -2.396366 3.2004) (locked) (size 0.15 0.15) (layers "F.Cu" "F.Paste" "F.Mask") (tstamp 085ab0c3-11a9-4268-968b-8792be271e2a))
  (pad "6" smd rect (at -4.6912 6.4008) (locked) (size 0.15 0.15) (layers "F.Cu" "F.Paste" "F.Mask") (tstamp 6dba7c75-1d72-46b1-a9e3-9efdef562260))
  (pad "7" smd rect (at -2.141949 3.2004) (locked) (size 0.15 0.15) (layers "F.Cu" "F.Paste" "F.Mask") (tstamp 795077d9-9668-4bf9-82a4-17ebb6e2c43c))
  (pad "8" smd rect (at -4.4412 6.4008 270) (locked) (size 0.15 0.15) (layers "F.Cu" "F.Paste" "F.Mask") (tstamp c497cc09-4da0-4f35-80ac-d89b744c8ca5))
  (pad "9" smd rect (at -1.887532 3.2004) (locked) (size 0.15 0.15) (layers "F.Cu" "F.Paste" "F.Mask") (tstamp 2ef51d0c-0efd-42b3-aab2-b1b1738a6044))
  (pad "10" smd rect (at -4.1912 6.4008) (locked) (size 0.15 0.15) (layers "F.Cu" "F.Paste" "F.Mask") (tstamp 12ab67ae-168f-439d-b3aa-647dbab753e5))
  (pad "11" smd rect (at -1.633115 3.2004) (locked) (size 0.15 0.15) (layers "F.Cu" "F.Paste" "F.Mask") (tstamp 03ff7c6d-a334-4230-a597-10ac4170a386))
  (pad "12" smd rect (at -2.91416 6.4008) (locked) (size 0.15 0.15) (layers "F.Cu" "F.Paste" "F.Mask") (tstamp b64ff70d-dd8a-4953-807b-2aae4c9b795e))
  (pad "13" smd rect (at -2.66416 6.4008) (locked) (size 0.15 0.15) (layers "F.Cu" "F.Paste" "F.Mask") (tstamp 1f5b3228-a03c-4cbf-9bf7-65712d554c45))
  (pad "14" smd rect (at -1.378698 3.2004) (locked) (size 0.15 0.15) (layers "F.Cu" "F.Paste" "F.Mask") (tstamp ad7b5a6a-78d8-472b-85a9-71160d9683ee))
  (pad "15" smd rect (at -1.124281 3.2004) (locked) (size 0.15 0.15) (layers "F.Cu" "F.Paste" "F.Mask") (tstamp e262e3ea-a79d-4fdb-aacd-2cb58937898b))
  (pad "16" smd rect (at -2.41416 6.4008) (locked) (size 0.15 0.15) (layers "F.Cu" "F.Paste" "F.Mask") (tstamp 44982880-bc1e-4a88-b568-ae5d454d57d9))
  (pad "17" smd rect (at -2.16416 6.4008) (locked) (size 0.15 0.15) (layers "F.Cu" "F.Paste" "F.Mask") (tstamp 247a3c01-f2f5-4c54-9814-e84bef6002f1))
  (pad "18" smd rect (at -0.869864 3.2004) (locked) (size 0.15 0.15) (layers "F.Cu" "F.Paste" "F.Mask") (tstamp b678788b-f9db-4373-b78f-6f5911fbe967))
  (pad "19" smd rect (at -0.615447 3.2004) (locked) (size 0.15 0.15) (layers "F.Cu" "F.Paste" "F.Mask") (tstamp ea2381e2-985d-42c2-894f-9b93ece156a8))
  (pad "20" smd rect (at -1.125 6.4008) (locked) (size 0.15 0.15) (layers "F.Cu" "F.Paste" "F.Mask") (tstamp bbca928d-ba64-4707-8eb8-964ae3e04f40))
  (pad "21" smd rect (at -0.36103 3.2004) (locked) (size 0.15 0.15) (layers "F.Cu" "F.Paste" "F.Mask") (tstamp 4a4409d9-a03b-40ee-b874-647790073135))
  (pad "22" smd rect (at -0.842528 6.4008) (locked) (size 0.15 0.15) (layers "F.Cu" "F.Paste" "F.Mask") (tstamp 92caf4fa-ed9d-4d98-b728-9060d61f5002))
  (pad "23" smd rect (at -0.106613 3.2004) (locked) (size 0.15 0.15) (layers "F.Cu" "F.Paste" "F.Mask") (tstamp 4c314e36-11e4-45a0-9b52-520c3603a2c4))
  (pad "24" smd rect (at -0.592528 6.4008) (locked) (size 0.15 0.15) (layers "F.Cu" "F.Paste" "F.Mask") (tstamp a490b18d-ac49-496a-a7b3-6ac5004f7713))
  (pad "25" smd rect (at 0.147804 3.9624) (locked) (size 0.15 0.15) (layers "F.Cu" "F.Paste" "F.Mask") (tstamp 2c377fed-48ac-489c-83bf-a9c92302c420))
  (pad "26" smd rect (at -0.342528 6.4008) (locked) (size 0.15 0.15) (layers "F.Cu" "F.Paste" "F.Mask") (tstamp 91e7e15c-3a0e-4373-81b5-41ca7879aeb3))
  (pad "27" smd rect (at 0.407804 3.2004) (locked) (size 0.15 0.15) (layers "F.Cu" "F.Paste" "F.Mask") (tstamp a0ef9b7a-e164-45c9-9819-f9fdcd3eeec3))
  (pad "28" smd rect (at 0.667804 3.9624 180) (locked) (size 0.15 0.15) (layers "F.Cu" "F.Paste" "F.Mask") (tstamp 7f2c34dd-9434-4d37-9d9e-63b760cd29de))
  (pad "29" smd rect (at 0.729104 6.4008) (locked) (size 0.15 0.15) (layers "F.Cu" "F.Paste" "F.Mask") (tstamp 02d06262-6269-4117-8b26-3cb7114b7366))
  (pad "30" smd rect (at 0.979104 6.4008) (locked) (size 0.15 0.15) (layers "F.Cu" "F.Paste" "F.Mask") (tstamp eff4c2da-6745-47e4-b123-4cc79ce4eb57))
  (pad "31" smd rect (at 0.911055 3.2004) (locked) (size 0.15 0.15) (layers "F.Cu" "F.Paste" "F.Mask") (tstamp 919c203b-a23a-4722-973a-095c7fae7920))
  (pad "32" smd rect (at 1.229104 6.4008) (locked) (size 0.15 0.15) (layers "F.Cu" "F.Paste" "F.Mask") (tstamp 41d2d40d-f599-4065-9c70-6f9f5168dade))
  (pad "33" smd rect (at 1.187804 3.9624) (locked) (size 0.15 0.15) (layers "F.Cu" "F.Paste" "F.Mask") (tstamp 9a849395-573c-4ca4-b3b5-d6e9f21bf79b))
  (pad "34" smd rect (at 2.300736 6.4008) (locked) (size 0.15 0.15) (layers "F.Cu" "F.Paste" "F.Mask") (tstamp 1ffae21f-c01a-4818-a24c-079566f7cc0a))
  (pad "35" smd rect (at 1.3208 3.2004) (locked) (size 0.15 0.15) (layers "F.Cu" "F.Paste" "F.Mask") (tstamp 572721ba-2423-4ef1-9e8e-bddeca407028))
  (pad "36" smd rect (at 2.550736 6.4008) (locked) (size 0.15 0.15) (layers "F.Cu" "F.Paste" "F.Mask") (tstamp 3f9b1ddc-11fb-47e8-94d2-824dfe4c844c))
  (pad "37" smd rect (at 1.6256 3.2004) (locked) (size 0.15 0.15) (layers "F.Cu" "F.Paste" "F.Mask") (tstamp 1a6240d7-d296-419b-af3d-4f7e146c5235))
  (pad "38" smd rect (at 2.800736 6.4008) (locked) (size 0.15 0.15) (layers "F.Cu" "F.Paste" "F.Mask") (tstamp 0cd5bf32-beb3-4edc-89f0-74a7f0d5c3fd))
  (pad "39" smd rect (at 1.928723 3.2004) (locked) (size 0.15 0.15) (layers "F.Cu" "F.Paste" "F.Mask") (tstamp 4c4ea3fe-eabd-4e20-9e9c-932925fb34a8))
  (pad "40" smd rect (at 4.2832 6.4008) (locked) (size 0.15 0.15) (layers "F.Cu" "F.Paste" "F.Mask") (tstamp b05e8c79-2f13-4712-86c6-e2b30f24b41d))
  (pad "41" smd rect (at 2.18314 3.2004) (locked) (size 0.15 0.15) (layers "F.Cu" "F.Paste" "F.Mask") (tstamp 7d2fdd0b-8580-49dd-9e6c-42cd23456000))
  (pad "42" smd rect (at 4.5332 6.4008) (locked) (size 0.15 0.15) (layers "F.Cu" "F.Paste" "F.Mask") (tstamp 9c702b26-1a4a-4ee6-bf44-8bd49f0a1842))
  (pad "43" smd rect (at 2.437557 3.2004) (locked) (size 0.15 0.15) (layers "F.Cu" "F.Paste" "F.Mask") (tstamp 242c31c9-ff57-42a0-a14b-42060f2a4780))
  (pad "44" smd rect (at 4.7832 6.4008) (locked) (size 0.15 0.15) (layers "F.Cu" "F.Paste" "F.Mask") (tstamp abd2ec7c-d6a5-48f0-a329-2a299b249070))
  (pad "45" smd rect (at 2.691974 3.2004) (locked) (size 0.15 0.15) (layers "F.Cu" "F.Paste" "F.Mask") (tstamp bd2bdb96-a818-4ed7-bf75-fe5b7bb01b7e))
  (pad "46" smd rect (at 5.0332 6.4008) (locked) (size 0.15 0.15) (layers "F.Cu" "F.Paste" "F.Mask") (tstamp 473e3e74-af78-40a7-bcb2-a9e75335c436))
  (pad "47" smd rect (at 2.9464 3.2004) (locked) (size 0.15 0.15) (layers "F.Cu" "F.Paste" "F.Mask") (tstamp 7f93ef3c-2f28-4948-be5c-adb8e33aa9d8))
  (pad "48" smd rect (at 5.2832 6.4008) (locked) (size 0.15 0.15) (layers "F.Cu" "F.Paste" "F.Mask") (tstamp c3360939-6b8a-4de1-a6bf-4d8036298a8b))
  (pad "49" smd rect (at -2.4384 -4.7752) (locked) (size 0.15 1) (layers "F.Cu" "F.Paste" "F.Mask") (tstamp 24d2adb4-9042-47b8-b682-bfc8df8da444))
  (pad "50" smd rect (at -6.2172 -3.0984 90) (locked) (size 0.15 1) (layers "F.Cu" "F.Paste" "F.Mask") (tstamp ead4ee1a-fc17-474a-9d68-ceba8b5d212f))
  (pad "51" smd rect (at -4.2672 -2.2224 90) (locked) (size 0.15 1) (layers "F.Cu" "F.Paste" "F.Mask") (tstamp 781c3049-52de-457e-a90e-61fe24cafe6d))
  (pad "52" smd rect (at -6.2484 -2.2988 90) (locked) (size 0.15 1) (layers "F.Cu" "F.Paste" "F.Mask") (tstamp a0c6ae7e-3de6-4b66-b27f-f93cb46949de))
  (pad "53" smd rect (at -4.2672 -1.816 90) (locked) (size 0.15 1) (layers "F.Cu" "F.Paste" "F.Mask") (tstamp 465a424b-1e02-4a09-b195-752ce83aa7b2))
  (pad "54" smd rect (at -6.2172 -1.4984 90) (locked) (size 0.15 1) (layers "F.Cu" "F.Paste" "F.Mask") (tstamp bef13c77-7219-4317-9912-ecd6d5acf85b))
  (pad "55" smd rect (at -4.2672 -1.4096 90) (locked) (size 0.15 1) (layers "F.Cu" "F.Paste" "F.Mask") (tstamp 2a2af387-2de2-4fb8-bb13-35be0d67a739))
  (pad "56" smd rect (at -6.1976 -0.6984 90) (locked) (size 0.15 1) (layers "F.Cu" "F.Paste" "F.Mask") (tstamp b9d58183-9635-4323-a1be-67932015ad93))
  (pad "57" smd rect (at -4.2672 -1.0032 90) (locked) (size 0.15 1) (layers "F.Cu" "F.Paste" "F.Mask") (tstamp 5da3657a-53e1-4caa-967f-c50d23d4521d))
  (pad "58" smd rect (at -6.2172 0.1016 90) (locked) (size 0.15 1) (layers "F.Cu" "F.Paste" "F.Mask") (tstamp 7ed44c7e-1976-4a43-b4c5-081b7f837c3a))
  (pad "59" smd rect (at -4.2672 -0.6096 90) (locked) (size 0.15 1) (layers "F.Cu" "F.Paste" "F.Mask") (tstamp 37590bf8-047c-4f53-93a6-2cdcbb0229ef))
  (pad "60" smd rect (at -6.2484 0.9016 90) (locked) (size 0.15 1) (layers "F.Cu" "F.Paste" "F.Mask") (tstamp 2aeec246-59ea-4428-982b-6884fac06a93))
  (pad "61" smd rect (at -4.2672 -0.1904 90) (locked) (size 0.15 1) (layers "F.Cu" "F.Paste" "F.Mask") (tstamp 63e1eea1-f072-48f1-8da3-db2ad56ad899))
  (pad "62" smd rect (at 2.4384 -4.7752) (locked) (size 0.15 1) (layers "F.Cu" "F.Paste" "F.Mask") (tstamp 1bec52e6-c2b9-4738-a413-fec625eb8030))
  (pad "63" smd rect (at 5.2324 -2.4892 90) (locked) (size 0.15 1) (layers "F.Cu" "F.Paste" "F.Mask") (tstamp 79205399-e5b4-4968-b836-6094d6dfa8e8))
  (pad "64" smd rect (at 7.3152 -2.6044 90) (locked) (size 0.15 1) (layers "F.Cu" "F.Paste" "F.Mask") (tstamp 370e75e2-db65-4d9d-80a4-a4e30414484d))
  (pad "65" smd rect (at 5.2324 -2.046515 90) (locked) (size 0.15 1) (layers "F.Cu" "F.Paste" "F.Mask") (tstamp 03157a5a-34f7-4ae6-91da-37a814d96ab0))
  (pad "66" smd rect (at 7.3152 -1.959134 90) (locked) (size 0.15 1) (layers "F.Cu" "F.Paste" "F.Mask") (tstamp 6f3d5645-9ad2-4e05-9254-922dfb910a9b))
  (pad "67" smd rect (at 5.2324 -1.60383 90) (locked) (size 0.15 1) (layers "F.Cu" "F.Paste" "F.Mask") (tstamp 2d2dbf20-7f9d-4015-8100-9f7a9b460ae5))
  (pad "68" smd rect (at 7.3152 -1.313868 90) (locked) (size 0.15 1) (layers "F.Cu" "F.Paste" "F.Mask") (tstamp a15f646e-070f-4eb5-8cbb-4eabad222da1))
  (pad "69" smd rect (at 5.2324 -1.161145 90) (locked) (size 0.15 1) (layers "F.Cu" "F.Paste" "F.Mask") (tstamp 1c8377a7-fe8c-43f2-b3b7-887f77e6774f))
  (pad "70" smd rect (at 7.3152 -0.668602 90) (locked) (size 0.15 1) (layers "F.Cu" "F.Paste" "F.Mask") (tstamp ae41625b-28ef-487c-bff7-1b28ade6a023))
  (pad "71" smd rect (at 5.2324 -0.71846 90) (locked) (size 0.15 1) (layers "F.Cu" "F.Paste" "F.Mask") (tstamp e325e229-2027-4d41-8b4e-e72b4c5d9416))
  (pad "72" smd rect (at 7.3152 -0.023336 90) (locked) (size 0.15 1) (layers "F.Cu" "F.Paste" "F.Mask") (tstamp 58655827-8927-4bb2-8e2f-3ad7686e7c91))
  (pad "73" smd rect (at 5.2324 -0.275775 90) (locked) (size 0.15 1) (layers "F.Cu" "F.Paste" "F.Mask") (tstamp f8865dc7-f059-487f-b72f-fac5444c3260))
  (pad "74" smd rect (at 7.3152 0.62193 90) (locked) (size 0.15 1) (layers "F.Cu" "F.Paste" "F.Mask") (tstamp 87b53764-bf91-4abe-8a3a-6902cb39ee47))
  (pad "75" smd rect (at 5.2324 0.16691 90) (locked) (size 0.15 1) (layers "F.Cu" "F.Paste" "F.Mask") (tstamp b66e9b8b-f435-4508-9149-12917574b6a4))
  (pad "76" smd rect (at 7.3152 1.2672 90) (locked) (size 0.15 1) (layers "F.Cu" "F.Paste" "F.Mask") (tstamp 25a924cd-897d-4725-8bfa-3efa232474d4))
  (pad "77" smd rect (at 5.2324 0.6096 90) (locked) (size 0.15 1) (layers "F.Cu" "F.Paste" "F.Mask") (tstamp 13f7da56-2d8a-4aa7-9af1-eb382b1ce85a))
  (pad "78" smd rect (at 5.2324 2.2324 90) (locked) (size 0.15 1) (layers "F.Cu" "F.Paste" "F.Mask") (tstamp 859b7bce-a7fe-42f4-9124-acb4d576d1cd))
)
