(module SiLAB (layer F.Cu) (tedit 0)
  (fp_text reference G*** (at 0 0) (layer F.SilkS) hide
    (effects (font (size 1.524 1.524) (thickness 0.3)))
  )
  (fp_text value LOGO (at 0.75 0) (layer F.SilkS) hide
    (effects (font (size 1.524 1.524) (thickness 0.3)))
  )
  (fp_poly (pts (xy -0.58939 2.068664) (xy -0.583316 2.069437) (xy -0.509751 2.088127) (xy -0.451907 2.122151)
    (xy -0.41118 2.170606) (xy -0.403438 2.185741) (xy -0.389838 2.221158) (xy -0.381992 2.252139)
    (xy -0.381253 2.260023) (xy -0.383727 2.276115) (xy -0.395602 2.28374) (xy -0.422933 2.285941)
    (xy -0.432954 2.286) (xy -0.465548 2.284418) (xy -0.480942 2.278029) (xy -0.484906 2.264365)
    (xy -0.484909 2.263795) (xy -0.49487 2.232855) (xy -0.520699 2.20077) (xy -0.556312 2.173563)
    (xy -0.591499 2.158278) (xy -0.646304 2.150845) (xy -0.698192 2.156675) (xy -0.743353 2.173536)
    (xy -0.77798 2.199192) (xy -0.798266 2.231413) (xy -0.800401 2.267964) (xy -0.79715 2.278876)
    (xy -0.787984 2.29682) (xy -0.773358 2.311615) (xy -0.749665 2.324973) (xy -0.713296 2.338605)
    (xy -0.660646 2.354222) (xy -0.609221 2.368026) (xy -0.536963 2.388769) (xy -0.482945 2.409072)
    (xy -0.442488 2.431319) (xy -0.410914 2.457896) (xy -0.393348 2.478102) (xy -0.366348 2.529496)
    (xy -0.359074 2.585903) (xy -0.370114 2.643044) (xy -0.398053 2.696641) (xy -0.441479 2.742416)
    (xy -0.490582 2.772468) (xy -0.529542 2.783619) (xy -0.583163 2.790639) (xy -0.643351 2.793307)
    (xy -0.70201 2.7914) (xy -0.751045 2.784696) (xy -0.767772 2.78007) (xy -0.831415 2.746095)
    (xy -0.881888 2.694892) (xy -0.916313 2.629903) (xy -0.927453 2.589068) (xy -0.930441 2.563389)
    (xy -0.923602 2.553096) (xy -0.908915 2.551388) (xy -0.875607 2.548165) (xy -0.858877 2.544694)
    (xy -0.840341 2.544317) (xy -0.830577 2.559972) (xy -0.827932 2.571135) (xy -0.806456 2.623998)
    (xy -0.76689 2.664228) (xy -0.711289 2.690478) (xy -0.641708 2.7014) (xy -0.628839 2.701636)
    (xy -0.567466 2.694693) (xy -0.518567 2.675865) (xy -0.483681 2.648157) (xy -0.464347 2.614571)
    (xy -0.462105 2.57811) (xy -0.478492 2.541778) (xy -0.515048 2.508579) (xy -0.526407 2.501738)
    (xy -0.542395 2.495992) (xy -0.575352 2.486168) (xy -0.619857 2.473837) (xy -0.652877 2.4651)
    (xy -0.739687 2.439215) (xy -0.805484 2.411355) (xy -0.852346 2.379821) (xy -0.88235 2.342911)
    (xy -0.897572 2.298926) (xy -0.900545 2.262341) (xy -0.890604 2.197499) (xy -0.861818 2.14442)
    (xy -0.815747 2.104049) (xy -0.753946 2.077335) (xy -0.677975 2.065224) (xy -0.58939 2.068664)) (layer F.Mask) (width 0.01))
  (fp_poly (pts (xy 1.213995 2.460187) (xy 1.218046 2.657466) (xy 1.25044 2.685324) (xy 1.293865 2.709474)
    (xy 1.339877 2.711386) (xy 1.385239 2.691168) (xy 1.398645 2.680439) (xy 1.417587 2.659541)
    (xy 1.431754 2.633073) (xy 1.441802 2.597614) (xy 1.448389 2.549742) (xy 1.452173 2.486036)
    (xy 1.453809 2.403074) (xy 1.453885 2.392795) (xy 1.454728 2.262909) (xy 1.547091 2.262909)
    (xy 1.547091 2.782454) (xy 1.50091 2.782454) (xy 1.470645 2.780486) (xy 1.457282 2.772613)
    (xy 1.454728 2.759711) (xy 1.453332 2.746618) (xy 1.445733 2.745155) (xy 1.426806 2.756026)
    (xy 1.412707 2.765484) (xy 1.366267 2.785561) (xy 1.308836 2.794058) (xy 1.249711 2.790423)
    (xy 1.205951 2.77777) (xy 1.180171 2.764803) (xy 1.160507 2.749174) (xy 1.146068 2.727712)
    (xy 1.13596 2.697248) (xy 1.129291 2.654612) (xy 1.125168 2.596636) (xy 1.122697 2.52015)
    (xy 1.121896 2.479386) (xy 1.11811 2.262909) (xy 1.209945 2.262909) (xy 1.213995 2.460187)) (layer F.Mask) (width 0.01))
  (fp_poly (pts (xy 3.610444 2.264197) (xy 3.669064 2.282131) (xy 3.709536 2.312679) (xy 3.717714 2.323519)
    (xy 3.72487 2.340975) (xy 3.730578 2.371051) (xy 3.73513 2.416503) (xy 3.738819 2.480087)
    (xy 3.741344 2.545773) (xy 3.744009 2.612029) (xy 3.747304 2.671188) (xy 3.75092 2.718971)
    (xy 3.754546 2.751098) (xy 3.75704 2.76225) (xy 3.759853 2.774695) (xy 3.750101 2.78067)
    (xy 3.723058 2.782415) (xy 3.714446 2.782454) (xy 3.680739 2.780465) (xy 3.663399 2.772749)
    (xy 3.656507 2.759144) (xy 3.651942 2.746262) (xy 3.643604 2.742806) (xy 3.625864 2.74931)
    (xy 3.595713 2.764917) (xy 3.545037 2.78363) (xy 3.48569 2.793241) (xy 3.426161 2.793357)
    (xy 3.37494 2.783586) (xy 3.356986 2.775927) (xy 3.320762 2.744096) (xy 3.298362 2.699099)
    (xy 3.291061 2.647151) (xy 3.294988 2.624333) (xy 3.396272 2.624333) (xy 3.396734 2.658322)
    (xy 3.414074 2.690419) (xy 3.446414 2.714499) (xy 3.452091 2.716905) (xy 3.48146 2.72019)
    (xy 3.520644 2.71512) (xy 3.558786 2.703626) (xy 3.576044 2.694849) (xy 3.612747 2.659202)
    (xy 3.635311 2.60756) (xy 3.641325 2.577772) (xy 3.645035 2.547621) (xy 3.642497 2.535233)
    (xy 3.631295 2.5356) (xy 3.622483 2.538705) (xy 3.598053 2.54558) (xy 3.559295 2.55415)
    (xy 3.515591 2.562381) (xy 3.472112 2.571899) (xy 3.435818 2.583467) (xy 3.414569 2.594578)
    (xy 3.396272 2.624333) (xy 3.294988 2.624333) (xy 3.30013 2.594467) (xy 3.313842 2.565282)
    (xy 3.347712 2.528389) (xy 3.398559 2.502694) (xy 3.457864 2.488571) (xy 3.49516 2.482488)
    (xy 3.542843 2.474531) (xy 3.57681 2.468774) (xy 3.649574 2.456339) (xy 3.641863 2.420237)
    (xy 3.629767 2.382617) (xy 3.609101 2.359653) (xy 3.572928 2.344002) (xy 3.568606 2.342681)
    (xy 3.514667 2.335588) (xy 3.465531 2.345732) (xy 3.426702 2.371253) (xy 3.408919 2.3966)
    (xy 3.391304 2.423899) (xy 3.374992 2.431047) (xy 3.373796 2.430669) (xy 3.350106 2.42586)
    (xy 3.328668 2.424545) (xy 3.308193 2.421663) (xy 3.304215 2.40827) (xy 3.307043 2.394479)
    (xy 3.331684 2.338346) (xy 3.373752 2.297137) (xy 3.433366 2.270779) (xy 3.510646 2.259201)
    (xy 3.53291 2.258607) (xy 3.610444 2.264197)) (layer F.Mask) (width 0.01))
  (fp_poly (pts (xy 3.948546 2.310974) (xy 3.986069 2.288187) (xy 4.05018 2.261328) (xy 4.114702 2.256975)
    (xy 4.17677 2.274776) (xy 4.233518 2.314382) (xy 4.238382 2.31912) (xy 4.271839 2.361217)
    (xy 4.293184 2.410836) (xy 4.304078 2.473172) (xy 4.306391 2.531712) (xy 4.297477 2.615847)
    (xy 4.270973 2.686423) (xy 4.227461 2.742335) (xy 4.177142 2.777712) (xy 4.132726 2.791046)
    (xy 4.078724 2.793584) (xy 4.025587 2.785771) (xy 3.986069 2.769581) (xy 3.961714 2.755334)
    (xy 3.950884 2.754096) (xy 3.948546 2.764002) (xy 3.942104 2.776572) (xy 3.919736 2.781918)
    (xy 3.902364 2.782454) (xy 3.856182 2.782454) (xy 3.856182 2.535686) (xy 3.948564 2.535686)
    (xy 3.955366 2.595754) (xy 3.972825 2.64848) (xy 4.000066 2.687772) (xy 4.010347 2.696263)
    (xy 4.052032 2.71251) (xy 4.09869 2.710917) (xy 4.141834 2.69241) (xy 4.156316 2.68037)
    (xy 4.188239 2.633608) (xy 4.207245 2.57334) (xy 4.211419 2.506361) (xy 4.209975 2.489817)
    (xy 4.194209 2.424105) (xy 4.164761 2.376197) (xy 4.122069 2.346786) (xy 4.119568 2.345803)
    (xy 4.071525 2.338599) (xy 4.026849 2.352615) (xy 3.989397 2.38599) (xy 3.970426 2.417897)
    (xy 3.953293 2.474369) (xy 3.948564 2.535686) (xy 3.856182 2.535686) (xy 3.856182 2.078182)
    (xy 3.948546 2.078182) (xy 3.948546 2.310974)) (layer F.Mask) (width 0.01))
  (fp_poly (pts (xy 4.709053 2.270732) (xy 4.767713 2.299451) (xy 4.815153 2.343156) (xy 4.83628 2.376146)
    (xy 4.858998 2.44193) (xy 4.867629 2.516465) (xy 4.862491 2.592252) (xy 4.843903 2.66179)
    (xy 4.82235 2.70381) (xy 4.781348 2.745949) (xy 4.725787 2.775709) (xy 4.661286 2.791933)
    (xy 4.593468 2.793465) (xy 4.527955 2.779145) (xy 4.50467 2.769226) (xy 4.466769 2.744026)
    (xy 4.433615 2.711497) (xy 4.426384 2.701746) (xy 4.399812 2.645276) (xy 4.385419 2.578853)
    (xy 4.383918 2.538235) (xy 4.479892 2.538235) (xy 4.490776 2.608454) (xy 4.491584 2.611417)
    (xy 4.514907 2.658201) (xy 4.552067 2.692011) (xy 4.597703 2.710914) (xy 4.646452 2.71298)
    (xy 4.692954 2.696277) (xy 4.704615 2.688152) (xy 4.741958 2.644278) (xy 4.763206 2.584657)
    (xy 4.768273 2.528454) (xy 4.760445 2.460649) (xy 4.738222 2.405445) (xy 4.703495 2.365442)
    (xy 4.658154 2.343238) (xy 4.630876 2.339586) (xy 4.57869 2.348457) (xy 4.535879 2.375917)
    (xy 4.504063 2.418807) (xy 4.484861 2.473966) (xy 4.479892 2.538235) (xy 4.383918 2.538235)
    (xy 4.382811 2.508283) (xy 4.391592 2.439376) (xy 4.411364 2.377939) (xy 4.441733 2.329779)
    (xy 4.452477 2.319115) (xy 4.510887 2.281189) (xy 4.576128 2.26093) (xy 4.643688 2.257668)
    (xy 4.709053 2.270732)) (layer F.Mask) (width 0.01))
  (fp_poly (pts (xy 6.52169 2.270732) (xy 6.580349 2.299451) (xy 6.627789 2.343156) (xy 6.648917 2.376146)
    (xy 6.671635 2.44193) (xy 6.680265 2.516465) (xy 6.675127 2.592252) (xy 6.656539 2.66179)
    (xy 6.634987 2.70381) (xy 6.593985 2.745949) (xy 6.538423 2.775709) (xy 6.473923 2.791933)
    (xy 6.406105 2.793465) (xy 6.340591 2.779145) (xy 6.317307 2.769226) (xy 6.279406 2.744026)
    (xy 6.246251 2.711497) (xy 6.239021 2.701746) (xy 6.212448 2.645276) (xy 6.198056 2.578853)
    (xy 6.196555 2.538235) (xy 6.292529 2.538235) (xy 6.303412 2.608454) (xy 6.304221 2.611417)
    (xy 6.327544 2.658201) (xy 6.364704 2.692011) (xy 6.410339 2.710914) (xy 6.459088 2.71298)
    (xy 6.50559 2.696277) (xy 6.517252 2.688152) (xy 6.554594 2.644278) (xy 6.575842 2.584657)
    (xy 6.58091 2.528454) (xy 6.573082 2.460649) (xy 6.550859 2.405445) (xy 6.516132 2.365442)
    (xy 6.470791 2.343238) (xy 6.443512 2.339586) (xy 6.391326 2.348457) (xy 6.348515 2.375917)
    (xy 6.3167 2.418807) (xy 6.297498 2.473966) (xy 6.292529 2.538235) (xy 6.196555 2.538235)
    (xy 6.195448 2.508283) (xy 6.204228 2.439376) (xy 6.224 2.377939) (xy 6.254369 2.329779)
    (xy 6.265114 2.319115) (xy 6.323523 2.281189) (xy 6.388764 2.26093) (xy 6.456324 2.257668)
    (xy 6.52169 2.270732)) (layer F.Mask) (width 0.01))
  (fp_poly (pts (xy -4.340062 -2.792945) (xy -4.084427 -2.751108) (xy -3.831519 -2.687374) (xy -3.694545 -2.643057)
    (xy -3.605936 -2.609005) (xy -3.504395 -2.564909) (xy -3.396017 -2.51381) (xy -3.286897 -2.458747)
    (xy -3.18313 -2.402762) (xy -3.09081 -2.348894) (xy -3.039937 -2.316528) (xy -2.82352 -2.159192)
    (xy -2.623601 -1.986271) (xy -2.440823 -1.798678) (xy -2.275831 -1.597323) (xy -2.129269 -1.383117)
    (xy -2.001781 -1.156973) (xy -1.894011 -0.9198) (xy -1.806604 -0.672511) (xy -1.761314 -0.508)
    (xy -1.736618 -0.403123) (xy -1.717309 -0.309525) (xy -1.702779 -0.221755) (xy -1.692421 -0.134367)
    (xy -1.685628 -0.041911) (xy -1.681792 0.061061) (xy -1.680306 0.179998) (xy -1.680228 0.219364)
    (xy -1.68068 0.32652) (xy -1.682207 0.414709) (xy -1.685005 0.488037) (xy -1.689275 0.55061)
    (xy -1.695214 0.606536) (xy -1.700877 0.646545) (xy -1.753845 0.916082) (xy -1.826949 1.174436)
    (xy -1.920126 1.421478) (xy -2.033309 1.657077) (xy -2.166433 1.881103) (xy -2.319433 2.093427)
    (xy -2.492243 2.293919) (xy -2.568727 2.372591) (xy -2.65447 2.453949) (xy -2.750217 2.538241)
    (xy -2.84932 2.619939) (xy -2.945134 2.693514) (xy -3.009536 2.739159) (xy -3.07342 2.782454)
    (xy -6.355772 2.782382) (xy -6.482772 2.688366) (xy -6.682 2.530386) (xy -6.861122 2.365607)
    (xy -7.022813 2.19101) (xy -7.169746 2.003577) (xy -7.304594 1.800291) (xy -7.372878 1.683666)
    (xy -7.481036 1.468569) (xy -7.572725 1.238527) (xy -7.647327 0.995387) (xy -7.704222 0.740997)
    (xy -7.720325 0.646545) (xy -7.728887 0.57453) (xy -6.903403 0.57453) (xy -6.899633 0.607305)
    (xy -6.891367 0.653074) (xy -6.879658 0.707274) (xy -6.865562 0.765339) (xy -6.850136 0.822704)
    (xy -6.834435 0.874804) (xy -6.819514 0.917075) (xy -6.818024 0.920787) (xy -6.764256 1.031485)
    (xy -6.696298 1.137629) (xy -6.617747 1.234908) (xy -6.532203 1.319009) (xy -6.443261 1.38562)
    (xy -6.41725 1.401104) (xy -6.320718 1.446262) (xy -6.205494 1.485251) (xy -6.075275 1.517545)
    (xy -5.933761 1.542618) (xy -5.784649 1.559944) (xy -5.631638 1.568998) (xy -5.478426 1.569252)
    (xy -5.328712 1.560183) (xy -5.310909 1.558417) (xy -5.12678 1.531128) (xy -4.960303 1.489143)
    (xy -4.811164 1.432274) (xy -4.67905 1.360333) (xy -4.563648 1.273131) (xy -4.464645 1.170481)
    (xy -4.381727 1.052194) (xy -4.340211 0.974968) (xy -4.292175 0.859827) (xy -4.262212 0.746788)
    (xy -4.248316 0.627192) (xy -4.246782 0.5715) (xy -4.255864 0.429003) (xy -4.284664 0.298378)
    (xy -4.333306 0.179277) (xy -4.401916 0.071352) (xy -4.444524 0.020623) (xy -4.505172 -0.039221)
    (xy -4.574119 -0.094685) (xy -4.653032 -0.146464) (xy -4.743583 -0.195253) (xy -4.84744 -0.24175)
    (xy -4.966274 -0.286649) (xy -5.101753 -0.330646) (xy -5.255547 -0.374437) (xy -5.429326 -0.418718)
    (xy -5.588 -0.455903) (xy -5.699031 -0.483681) (xy -5.788409 -0.512275) (xy -5.857572 -0.54281)
    (xy -5.907955 -0.576416) (xy -5.940995 -0.61422) (xy -5.958128 -0.657349) (xy -5.960792 -0.706932)
    (xy -5.955224 -0.744194) (xy -5.932734 -0.799266) (xy -5.892597 -0.849177) (xy -5.840233 -0.88777)
    (xy -5.820417 -0.897299) (xy -5.745362 -0.918852) (xy -5.658496 -0.927935) (xy -5.567328 -0.924728)
    (xy -5.479366 -0.909408) (xy -5.414268 -0.887663) (xy -5.349873 -0.84857) (xy -5.2919 -0.791898)
    (xy -5.244356 -0.723035) (xy -5.21125 -0.647364) (xy -5.199725 -0.599345) (xy -5.198411 -0.58683)
    (xy -5.197421 -0.576614) (xy -5.194611 -0.568593) (xy -5.187838 -0.562661) (xy -5.174958 -0.558716)
    (xy -5.153828 -0.556652) (xy -5.122302 -0.556366) (xy -5.078239 -0.557754) (xy -5.019493 -0.560712)
    (xy -4.943922 -0.565136) (xy -4.849382 -0.570921) (xy -4.745181 -0.577273) (xy -4.654006 -0.582755)
    (xy -4.569947 -0.587772) (xy -4.495849 -0.592158) (xy -4.434555 -0.595745) (xy -4.38891 -0.598367)
    (xy -4.361759 -0.599857) (xy -4.355522 -0.600138) (xy -4.346227 -0.60394) (xy -4.342347 -0.617008)
    (xy -4.344158 -0.642398) (xy -4.351937 -0.683163) (xy -4.365961 -0.742357) (xy -4.36978 -0.757633)
    (xy -4.413611 -0.895286) (xy -4.47217 -1.016766) (xy -4.546199 -1.12271) (xy -4.63644 -1.213756)
    (xy -4.743637 -1.290542) (xy -4.868531 -1.353706) (xy -5.011864 -1.403885) (xy -5.080558 -1.420091)
    (xy -3.729181 -1.420091) (xy -3.729181 1.524) (xy -2.828636 1.524) (xy -2.828636 -1.420091)
    (xy -3.729181 -1.420091) (xy -5.080558 -1.420091) (xy -5.163855 -1.439742) (xy -5.223248 -1.44802)
    (xy -5.300801 -1.454312) (xy -5.391668 -1.45862) (xy -5.491002 -1.460948) (xy -5.59396 -1.4613)
    (xy -5.695695 -1.459679) (xy -5.791362 -1.45609) (xy -5.876116 -1.450535) (xy -5.94511 -1.443018)
    (xy -5.969 -1.439133) (xy -6.116467 -1.405302) (xy -6.245767 -1.3616) (xy -6.36031 -1.306382)
    (xy -6.463503 -1.238003) (xy -6.558756 -1.154821) (xy -6.559034 -1.154546) (xy -6.608378 -1.103949)
    (xy -6.644911 -1.060987) (xy -6.673789 -1.018785) (xy -6.700165 -0.970469) (xy -6.706174 -0.958273)
    (xy -6.744674 -0.871294) (xy -6.770007 -0.79293) (xy -6.784242 -0.714445) (xy -6.789448 -0.627103)
    (xy -6.789588 -0.606136) (xy -6.779961 -0.475236) (xy -6.750817 -0.355862) (xy -6.701432 -0.246119)
    (xy -6.63108 -0.144117) (xy -6.598237 -0.106493) (xy -6.52941 -0.03993) (xy -6.450793 0.020849)
    (xy -6.360435 0.076736) (xy -6.256391 0.128624) (xy -6.136711 0.177403) (xy -5.999448 0.223967)
    (xy -5.842655 0.269207) (xy -5.696916 0.306238) (xy -5.574327 0.337085) (xy -5.472296 0.365751)
    (xy -5.38851 0.393235) (xy -5.320655 0.420534) (xy -5.266417 0.448646) (xy -5.223484 0.478567)
    (xy -5.189542 0.511295) (xy -5.172912 0.532166) (xy -5.135866 0.6008) (xy -5.120013 0.672035)
    (xy -5.124155 0.742824) (xy -5.147094 0.810122) (xy -5.187633 0.870882) (xy -5.244574 0.922058)
    (xy -5.316719 0.960604) (xy -5.345238 0.970517) (xy -5.387569 0.982123) (xy -5.426304 0.989083)
    (xy -5.468967 0.992108) (xy -5.523083 0.991909) (xy -5.559246 0.990728) (xy -5.617983 0.988012)
    (xy -5.660646 0.984125) (xy -5.694248 0.977525) (xy -5.7258 0.966672) (xy -5.762317 0.950022)
    (xy -5.776895 0.942872) (xy -5.851283 0.898873) (xy -5.911084 0.846151) (xy -5.958759 0.781299)
    (xy -5.996767 0.700908) (xy -6.027566 0.601571) (xy -6.029892 0.5923) (xy -6.053277 0.497646)
    (xy -6.123706 0.503444) (xy -6.153186 0.505636) (xy -6.202115 0.509003) (xy -6.266896 0.513308)
    (xy -6.34393 0.518315) (xy -6.429619 0.523789) (xy -6.520365 0.529495) (xy -6.544602 0.531003)
    (xy -6.632213 0.536638) (xy -6.712244 0.542159) (xy -6.781826 0.547337) (xy -6.838091 0.551947)
    (xy -6.878171 0.55576) (xy -6.899196 0.558549) (xy -6.901618 0.559316) (xy -6.903403 0.57453)
    (xy -7.728887 0.57453) (xy -7.730142 0.563975) (xy -7.737047 0.463833) (xy -7.741078 0.351448)
    (xy -7.74227 0.23215) (xy -7.740659 0.11127) (xy -7.736281 -0.005863) (xy -7.729174 -0.11392)
    (xy -7.719373 -0.207569) (xy -7.714279 -0.242455) (xy -7.659823 -0.5083) (xy -7.58469 -0.764244)
    (xy -7.489257 -1.009669) (xy -7.373896 -1.243954) (xy -7.238983 -1.466479) (xy -7.084891 -1.676625)
    (xy -6.911994 -1.873772) (xy -6.720669 -2.057301) (xy -6.519263 -2.220655) (xy -6.305689 -2.365927)
    (xy -6.081522 -2.491295) (xy -5.848242 -2.596537) (xy -5.607329 -2.681431) (xy -5.360263 -2.745756)
    (xy -5.108523 -2.789292) (xy -4.85359 -2.811816) (xy -4.596943 -2.813108) (xy -4.340062 -2.792945)) (layer F.Mask) (width 0.01))
  (fp_poly (pts (xy -0.15009 2.782454) (xy -0.254 2.782454) (xy -0.254 2.262909) (xy -0.15009 2.262909)
    (xy -0.15009 2.782454)) (layer F.Mask) (width 0.01))
  (fp_poly (pts (xy 0.057728 2.782454) (xy -0.034636 2.782454) (xy -0.034636 2.078182) (xy 0.057728 2.078182)
    (xy 0.057728 2.782454)) (layer F.Mask) (width 0.01))
  (fp_poly (pts (xy 0.288637 2.782454) (xy 0.184728 2.782454) (xy 0.184728 2.262909) (xy 0.288637 2.262909)
    (xy 0.288637 2.782454)) (layer F.Mask) (width 0.01))
  (fp_poly (pts (xy 0.808182 2.296847) (xy 0.805084 2.31251) (xy 0.794666 2.333756) (xy 0.775245 2.362935)
    (xy 0.74514 2.402397) (xy 0.702667 2.454492) (xy 0.653152 2.513324) (xy 0.498121 2.695864)
    (xy 0.658924 2.699067) (xy 0.819728 2.70227) (xy 0.819728 2.782454) (xy 0.35791 2.782454)
    (xy 0.35791 2.746992) (xy 0.360429 2.73178) (xy 0.369195 2.712532) (xy 0.386015 2.686773)
    (xy 0.412699 2.652029) (xy 0.451055 2.605824) (xy 0.502891 2.545684) (xy 0.516128 2.530515)
    (xy 0.674347 2.3495) (xy 0.527674 2.346269) (xy 0.381 2.343037) (xy 0.381 2.262909)
    (xy 0.808182 2.262909) (xy 0.808182 2.296847)) (layer F.Mask) (width 0.01))
  (fp_poly (pts (xy 1.004455 2.782454) (xy 0.900546 2.782454) (xy 0.900546 2.262909) (xy 1.004455 2.262909)
    (xy 1.004455 2.782454)) (layer F.Mask) (width 0.01))
  (fp_poly (pts (xy 1.947651 2.261412) (xy 1.997915 2.28118) (xy 2.024847 2.302919) (xy 2.049761 2.329802)
    (xy 2.081474 2.302524) (xy 2.133407 2.271643) (xy 2.193364 2.257747) (xy 2.254166 2.261473)
    (xy 2.307169 2.282532) (xy 2.327068 2.298202) (xy 2.342126 2.319185) (xy 2.352971 2.348609)
    (xy 2.360229 2.389598) (xy 2.364528 2.44528) (xy 2.366494 2.518781) (xy 2.366819 2.580038)
    (xy 2.366819 2.782454) (xy 2.275975 2.782454) (xy 2.272329 2.58736) (xy 2.270715 2.514603)
    (xy 2.268717 2.461302) (xy 2.265912 2.42382) (xy 2.261873 2.398524) (xy 2.256177 2.381778)
    (xy 2.248398 2.369946) (xy 2.246688 2.367996) (xy 2.216444 2.3497) (xy 2.175902 2.343564)
    (xy 2.134979 2.350588) (xy 2.123725 2.355615) (xy 2.103213 2.370298) (xy 2.088092 2.391439)
    (xy 2.077618 2.422338) (xy 2.071047 2.466295) (xy 2.067635 2.526608) (xy 2.066637 2.606577)
    (xy 2.066637 2.782454) (xy 1.976601 2.782454) (xy 1.972551 2.587384) (xy 1.970781 2.514588)
    (xy 1.968663 2.46125) (xy 1.965763 2.423735) (xy 1.961652 2.398411) (xy 1.955897 2.381643)
    (xy 1.948068 2.369798) (xy 1.946506 2.36802) (xy 1.914033 2.347897) (xy 1.872671 2.343654)
    (xy 1.830111 2.3551) (xy 1.804621 2.371565) (xy 1.772228 2.399402) (xy 1.768564 2.590928)
    (xy 1.764901 2.782454) (xy 1.662546 2.782454) (xy 1.662546 2.262909) (xy 1.708728 2.262909)
    (xy 1.738444 2.26444) (xy 1.751653 2.27185) (xy 1.754882 2.289361) (xy 1.75491 2.292799)
    (xy 1.75491 2.322689) (xy 1.788721 2.294239) (xy 1.836042 2.267684) (xy 1.891356 2.256828)
    (xy 1.947651 2.261412)) (layer F.Mask) (width 0.01))
  (fp_poly (pts (xy 2.874819 2.690091) (xy 3.221182 2.690091) (xy 3.221182 2.782454) (xy 2.77091 2.782454)
    (xy 2.77091 2.078182) (xy 2.874819 2.078182) (xy 2.874819 2.690091)) (layer F.Mask) (width 0.01))
  (fp_poly (pts (xy 5.194945 2.26412) (xy 5.225662 2.273894) (xy 5.238491 2.283764) (xy 5.237236 2.301344)
    (xy 5.227484 2.329271) (xy 5.216044 2.355028) (xy 5.201824 2.363931) (xy 5.175936 2.361393)
    (xy 5.175025 2.361223) (xy 5.136813 2.357383) (xy 5.107137 2.363417) (xy 5.08487 2.381544)
    (xy 5.068888 2.41398) (xy 5.058064 2.462942) (xy 5.051274 2.530645) (xy 5.047598 2.612159)
    (xy 5.042507 2.782454) (xy 4.953 2.782454) (xy 4.953 2.262909) (xy 4.999182 2.262909)
    (xy 5.029169 2.26469) (xy 5.042469 2.272309) (xy 5.045364 2.288012) (xy 5.045364 2.313116)
    (xy 5.071341 2.289339) (xy 5.110986 2.262864) (xy 5.153899 2.256174) (xy 5.194945 2.26412)) (layer F.Mask) (width 0.01))
  (fp_poly (pts (xy 5.836607 2.078934) (xy 5.898215 2.081803) (xy 5.944443 2.087702) (xy 5.979132 2.097549)
    (xy 6.006123 2.112256) (xy 6.029255 2.132742) (xy 6.041239 2.146224) (xy 6.070395 2.19657)
    (xy 6.081412 2.252527) (xy 6.074621 2.30816) (xy 6.050353 2.357531) (xy 6.028134 2.381182)
    (xy 5.99532 2.408792) (xy 6.02938 2.423868) (xy 6.070565 2.45372) (xy 6.098549 2.497647)
    (xy 6.112845 2.550451) (xy 6.112966 2.606933) (xy 6.098427 2.661894) (xy 6.068739 2.710134)
    (xy 6.057289 2.722066) (xy 6.031919 2.743248) (xy 6.004632 2.758924) (xy 5.971542 2.769882)
    (xy 5.928766 2.77691) (xy 5.872417 2.780794) (xy 5.79861 2.782324) (xy 5.759459 2.782454)
    (xy 5.576455 2.782454) (xy 5.576455 2.690091) (xy 5.680364 2.690091) (xy 5.801048 2.690091)
    (xy 5.854649 2.688857) (xy 5.902234 2.685533) (xy 5.937377 2.680684) (xy 5.950583 2.676946)
    (xy 5.983754 2.650202) (xy 6.003852 2.610378) (xy 6.007783 2.565216) (xy 6.003357 2.544924)
    (xy 5.989336 2.513519) (xy 5.968792 2.49113) (xy 5.937913 2.476142) (xy 5.892886 2.466937)
    (xy 5.829898 2.4619) (xy 5.80515 2.460898) (xy 5.680364 2.456627) (xy 5.680364 2.690091)
    (xy 5.576455 2.690091) (xy 5.576455 2.170545) (xy 5.680364 2.170545) (xy 5.680364 2.366818)
    (xy 5.790619 2.366818) (xy 5.861976 2.364522) (xy 5.911508 2.357569) (xy 5.933538 2.349927)
    (xy 5.965881 2.321826) (xy 5.981034 2.283831) (xy 5.978212 2.242296) (xy 5.956629 2.203577)
    (xy 5.952207 2.198884) (xy 5.937926 2.186173) (xy 5.922215 2.177958) (xy 5.89992 2.173265)
    (xy 5.865889 2.171122) (xy 5.814968 2.170555) (xy 5.802116 2.170545) (xy 5.680364 2.170545)
    (xy 5.576455 2.170545) (xy 5.576455 2.078182) (xy 5.75578 2.078182) (xy 5.836607 2.078934)) (layer F.Mask) (width 0.01))
  (fp_poly (pts (xy 7.091993 2.269457) (xy 7.135468 2.292709) (xy 7.144666 2.301295) (xy 7.161477 2.322128)
    (xy 7.173946 2.346091) (xy 7.182687 2.376835) (xy 7.188317 2.418011) (xy 7.191451 2.473271)
    (xy 7.192704 2.546265) (xy 7.192819 2.586933) (xy 7.192819 2.782454) (xy 7.100455 2.782454)
    (xy 7.100455 2.617855) (xy 7.099431 2.533977) (xy 7.096027 2.470099) (xy 7.08974 2.423209)
    (xy 7.08007 2.390292) (xy 7.066516 2.368334) (xy 7.057594 2.360116) (xy 7.021637 2.345701)
    (xy 6.978086 2.345936) (xy 6.934651 2.358711) (xy 6.899045 2.381919) (xy 6.880595 2.408532)
    (xy 6.876673 2.430136) (xy 6.873364 2.46988) (xy 6.870939 2.522815) (xy 6.869669 2.583993)
    (xy 6.869546 2.610024) (xy 6.869546 2.782454) (xy 6.765637 2.782454) (xy 6.765637 2.262909)
    (xy 6.811819 2.262909) (xy 6.841504 2.264401) (xy 6.854702 2.271799) (xy 6.857963 2.289483)
    (xy 6.858 2.293785) (xy 6.858 2.324661) (xy 6.883978 2.30059) (xy 6.926961 2.274147)
    (xy 6.98067 2.260156) (xy 7.038037 2.258599) (xy 7.091993 2.269457)) (layer F.Mask) (width 0.01))
  (fp_poly (pts (xy 7.646175 2.269457) (xy 7.68965 2.292709) (xy 7.698848 2.301295) (xy 7.715659 2.322128)
    (xy 7.728127 2.346091) (xy 7.736869 2.376835) (xy 7.742499 2.418011) (xy 7.745633 2.473271)
    (xy 7.746886 2.546265) (xy 7.747 2.586933) (xy 7.747 2.782454) (xy 7.654637 2.782454)
    (xy 7.654637 2.617855) (xy 7.653613 2.533977) (xy 7.650209 2.470099) (xy 7.643922 2.423209)
    (xy 7.634252 2.390292) (xy 7.620698 2.368334) (xy 7.611776 2.360116) (xy 7.575819 2.345701)
    (xy 7.532268 2.345936) (xy 7.488833 2.358711) (xy 7.453227 2.381919) (xy 7.434777 2.408532)
    (xy 7.430855 2.430136) (xy 7.427545 2.46988) (xy 7.42512 2.522815) (xy 7.423851 2.583993)
    (xy 7.423728 2.610024) (xy 7.423728 2.782454) (xy 7.319819 2.782454) (xy 7.319819 2.262909)
    (xy 7.366 2.262909) (xy 7.395686 2.264401) (xy 7.408884 2.271799) (xy 7.412145 2.289483)
    (xy 7.412182 2.293785) (xy 7.412182 2.324661) (xy 7.43816 2.30059) (xy 7.481143 2.274147)
    (xy 7.534852 2.260156) (xy 7.592219 2.258599) (xy 7.646175 2.269457)) (layer F.Mask) (width 0.01))
  (fp_poly (pts (xy -0.15009 2.182091) (xy -0.254 2.182091) (xy -0.254 2.078182) (xy -0.15009 2.078182)
    (xy -0.15009 2.182091)) (layer F.Mask) (width 0.01))
  (fp_poly (pts (xy 0.288637 2.182091) (xy 0.184728 2.182091) (xy 0.184728 2.078182) (xy 0.288637 2.078182)
    (xy 0.288637 2.182091)) (layer F.Mask) (width 0.01))
  (fp_poly (pts (xy 1.004455 2.182091) (xy 0.900546 2.182091) (xy 0.900546 2.078182) (xy 1.004455 2.078182)
    (xy 1.004455 2.182091)) (layer F.Mask) (width 0.01))
  (fp_poly (pts (xy 0.011546 0.796636) (xy 1.431637 0.796636) (xy 1.431637 1.524) (xy -0.91209 1.524)
    (xy -0.91209 -1.431636) (xy 0.011546 -1.431636) (xy 0.011546 0.796636)) (layer F.Mask) (width 0.01))
  (fp_poly (pts (xy 4.194163 0.037413) (xy 4.260401 0.213926) (xy 4.324364 0.384507) (xy 4.385583 0.547904)
    (xy 4.443594 0.702868) (xy 4.497929 0.848148) (xy 4.548123 0.982492) (xy 4.593707 1.104651)
    (xy 4.634217 1.213373) (xy 4.669184 1.307408) (xy 4.698144 1.385506) (xy 4.720629 1.446416)
    (xy 4.736173 1.488886) (xy 4.744309 1.511667) (xy 4.745458 1.515341) (xy 4.734253 1.517199)
    (xy 4.702362 1.518921) (xy 4.652192 1.520463) (xy 4.586148 1.521781) (xy 4.506636 1.522831)
    (xy 4.416062 1.52357) (xy 4.31683 1.523954) (xy 4.267788 1.524) (xy 3.790394 1.524)
    (xy 3.741707 1.359477) (xy 3.722122 1.293389) (xy 3.702625 1.22776) (xy 3.685209 1.169291)
    (xy 3.671869 1.124684) (xy 3.669531 1.116905) (xy 3.646043 1.038855) (xy 3.13177 1.041859)
    (xy 2.617497 1.044864) (xy 2.546999 1.284396) (xy 2.4765 1.523929) (xy 2.006023 1.523964)
    (xy 1.904333 1.523904) (xy 1.810197 1.523716) (xy 1.726038 1.523415) (xy 1.654277 1.523016)
    (xy 1.597333 1.522534) (xy 1.557628 1.521983) (xy 1.537583 1.521378) (xy 1.535609 1.521114)
    (xy 1.539602 1.510162) (xy 1.551254 1.47884) (xy 1.570099 1.42839) (xy 1.595671 1.360054)
    (xy 1.627504 1.275076) (xy 1.66513 1.174699) (xy 1.708086 1.060165) (xy 1.755903 0.932718)
    (xy 1.808115 0.793601) (xy 1.864258 0.644056) (xy 1.923863 0.485326) (xy 1.958712 0.392545)
    (xy 2.818292 0.392545) (xy 3.450304 0.392545) (xy 3.422675 0.303068) (xy 3.412958 0.271537)
    (xy 3.397422 0.221036) (xy 3.377018 0.154672) (xy 3.352704 0.07555) (xy 3.325431 -0.013225)
    (xy 3.296155 -0.108547) (xy 3.265831 -0.207311) (xy 3.265022 -0.209946) (xy 3.236033 -0.304078)
    (xy 3.209152 -0.390798) (xy 3.185124 -0.46774) (xy 3.164698 -0.532538) (xy 3.14862 -0.582826)
    (xy 3.137636 -0.616235) (xy 3.132494 -0.630401) (xy 3.132232 -0.630716) (xy 3.128414 -0.619443)
    (xy 3.11862 -0.588331) (xy 3.103545 -0.539646) (xy 3.083883 -0.475653) (xy 3.06033 -0.398621)
    (xy 3.033581 -0.310814) (xy 3.004331 -0.2145) (xy 2.984623 -0.149452) (xy 2.953757 -0.047569)
    (xy 2.924644 0.048365) (xy 2.898031 0.135899) (xy 2.874667 0.21258) (xy 2.8553 0.275956)
    (xy 2.840675 0.323575) (xy 2.831543 0.352986) (xy 2.829036 0.360795) (xy 2.818292 0.392545)
    (xy 1.958712 0.392545) (xy 1.986466 0.318655) (xy 2.0516 0.145285) (xy 2.088838 0.046182)
    (xy 2.642004 -1.425864) (xy 3.142298 -1.42886) (xy 3.642591 -1.431856) (xy 4.194163 0.037413)) (layer F.Mask) (width 0.01))
  (fp_poly (pts (xy 5.91416 -1.431542) (xy 6.092236 -1.431445) (xy 6.248918 -1.431151) (xy 6.3859 -1.430591)
    (xy 6.504877 -1.429698) (xy 6.607546 -1.428403) (xy 6.6956 -1.42664) (xy 6.770737 -1.424339)
    (xy 6.834651 -1.421434) (xy 6.889038 -1.417857) (xy 6.935593 -1.413539) (xy 6.976011 -1.408413)
    (xy 7.011988 -1.402411) (xy 7.04522 -1.395465) (xy 7.077401 -1.387508) (xy 7.088389 -1.384564)
    (xy 7.207273 -1.341369) (xy 7.315681 -1.280406) (xy 7.411335 -1.20387) (xy 7.491955 -1.113958)
    (xy 7.55526 -1.012867) (xy 7.59897 -0.902793) (xy 7.602836 -0.888913) (xy 7.624923 -0.764898)
    (xy 7.626405 -0.640398) (xy 7.607905 -0.518904) (xy 7.570048 -0.403907) (xy 7.513455 -0.2989)
    (xy 7.492173 -0.268881) (xy 7.450244 -0.222794) (xy 7.394274 -0.174119) (xy 7.331796 -0.128502)
    (xy 7.270341 -0.091588) (xy 7.232239 -0.074054) (xy 7.202314 -0.061171) (xy 7.183983 -0.050477)
    (xy 7.181273 -0.047008) (xy 7.191383 -0.039975) (xy 7.217166 -0.030451) (xy 7.236114 -0.024996)
    (xy 7.342076 0.012792) (xy 7.44286 0.067602) (xy 7.534269 0.136183) (xy 7.612105 0.215283)
    (xy 7.672169 0.301653) (xy 7.682099 0.320345) (xy 7.71498 0.393945) (xy 7.737575 0.466131)
    (xy 7.751303 0.543707) (xy 7.757583 0.633476) (xy 7.758375 0.686217) (xy 7.752024 0.814659)
    (xy 7.731737 0.927912) (xy 7.696173 1.030138) (xy 7.643994 1.125502) (xy 7.59559 1.191994)
    (xy 7.537964 1.258703) (xy 7.479574 1.314445) (xy 7.417318 1.360622) (xy 7.348094 1.398635)
    (xy 7.2688 1.429886) (xy 7.176335 1.455777) (xy 7.067596 1.477708) (xy 6.93948 1.49708)
    (xy 6.9124 1.500625) (xy 6.876237 1.505094) (xy 6.841107 1.508957) (xy 6.805086 1.512259)
    (xy 6.766252 1.515043) (xy 6.72268 1.517353) (xy 6.672448 1.519231) (xy 6.613632 1.520723)
    (xy 6.544307 1.521872) (xy 6.462552 1.522721) (xy 6.366443 1.523313) (xy 6.254055 1.523693)
    (xy 6.123466 1.523904) (xy 5.972752 1.52399) (xy 5.881968 1.524) (xy 5.033819 1.524)
    (xy 5.033819 0.889) (xy 5.957455 0.889) (xy 6.204847 0.889) (xy 6.284951 0.8884)
    (xy 6.36347 0.886728) (xy 6.435229 0.884175) (xy 6.495054 0.880929) (xy 6.53777 0.877184)
    (xy 6.542551 0.876567) (xy 6.623974 0.861081) (xy 6.687586 0.838617) (xy 6.738117 0.807207)
    (xy 6.762215 0.785234) (xy 6.803671 0.734094) (xy 6.828406 0.680225) (xy 6.839283 0.616187)
    (xy 6.840421 0.58214) (xy 6.839168 0.534717) (xy 6.833396 0.500463) (xy 6.82063 0.469547)
    (xy 6.805573 0.443594) (xy 6.761879 0.389878) (xy 6.71983 0.358806) (xy 6.686474 0.341965)
    (xy 6.652105 0.328633) (xy 6.613566 0.318416) (xy 6.567702 0.310924) (xy 6.511354 0.305764)
    (xy 6.441367 0.302545) (xy 6.354585 0.300875) (xy 6.248978 0.300362) (xy 5.957455 0.300182)
    (xy 5.957455 0.889) (xy 5.033819 0.889) (xy 5.033819 -0.819727) (xy 5.957455 -0.819727)
    (xy 5.957455 -0.277091) (xy 6.220905 -0.277091) (xy 6.314824 -0.277476) (xy 6.388811 -0.278747)
    (xy 6.446014 -0.281077) (xy 6.489582 -0.28464) (xy 6.522663 -0.289609) (xy 6.54434 -0.294905)
    (xy 6.614366 -0.325897) (xy 6.667032 -0.372106) (xy 6.702308 -0.433489) (xy 6.720166 -0.510004)
    (xy 6.722556 -0.5542) (xy 6.714033 -0.633115) (xy 6.687553 -0.697617) (xy 6.642768 -0.748153)
    (xy 6.579328 -0.785169) (xy 6.528965 -0.801921) (xy 6.496729 -0.808517) (xy 6.455505 -0.813409)
    (xy 6.402062 -0.816778) (xy 6.333168 -0.818804) (xy 6.245591 -0.819667) (xy 6.209029 -0.819727)
    (xy 5.957455 -0.819727) (xy 5.033819 -0.819727) (xy 5.033819 -1.431636) (xy 5.91416 -1.431542)) (layer F.Mask) (width 0.01))
)
